<!-- Generator: Adobe Illustrator 24.0.0, SVG Export Plug-In  -->
<svg version="1.1" xmlns="http://www.w3.org/2000/svg" xmlns:xlink="http://www.w3.org/1999/xlink" x="0px" y="0px"
	 width="596.63px" height="390.65px" viewBox="0 0 596.63 390.65" style="enable-background:new 0 0 596.63 390.65;"
	 xml:space="preserve">
<style type="text/css">
	.st0{fill:#71BF9D;}
	.st1{fill:none;stroke:#E57E55;stroke-width:0.9971;stroke-linecap:round;stroke-linejoin:round;stroke-miterlimit:10;}
	.st2{fill:none;stroke:#E57E55;stroke-width:0.7983;stroke-linecap:round;stroke-linejoin:round;stroke-miterlimit:10;}
	.st3{fill:#FFFFFF;}
	.st4{fill:#FFD25A;}
	.st5{fill:#FFBE57;}
	.st6{fill:none;stroke:#FFFFFF;stroke-width:0.9735;stroke-miterlimit:10;}
	.st7{fill:#764582;}
	.st8{fill:#9D68AA;}
	.st9{fill:#FFFFFF;stroke:#764582;stroke-width:0.9736;stroke-miterlimit:10;}
	.st10{fill-rule:evenodd;clip-rule:evenodd;fill:#764582;}
	.st11{fill-rule:evenodd;clip-rule:evenodd;fill:#FFFFFF;stroke:#764582;stroke-width:1.0244;stroke-miterlimit:10;}
	.st12{fill:none;stroke:#764582;stroke-width:1.265;stroke-miterlimit:10;}
	.st13{fill:#FFFFFF;stroke:#764582;stroke-width:1.0244;stroke-linecap:round;stroke-linejoin:round;stroke-miterlimit:10;}
	.st14{opacity:0.7;fill:#A1ABAD;}
	.st15{fill:#DD4026;}
	.st16{fill:#E2E2E2;}
	.st17{fill:#FD6141;}
	.st18{fill:none;}
	.st19{fill:none;stroke:#EFE9DA;stroke-width:1.1573;stroke-linecap:round;stroke-miterlimit:10;}
	.st20{fill:none;stroke:#EFE9DA;stroke-width:1.1573;stroke-miterlimit:10;}
	.st21{fill:#3C8460;}
	.st22{opacity:0.2;fill:#764582;}
	.st23{fill:#E4BCE8;}
	.st24{fill:none;stroke:#FFFFFF;stroke-width:0.9734;stroke-miterlimit:10;}
	.st25{fill:#FDEEFF;}
	.st26{fill:#A1ABAD;}
	.st27{fill:#FFCC5A;stroke:#764582;stroke-width:0.9736;stroke-miterlimit:10;}
	.st28{fill-rule:evenodd;clip-rule:evenodd;fill:#9D68AA;}
	.st29{fill:#FFB072;}
	.st30{fill:#3E2344;}
	.st31{fill:#FFDCAE;}
	.st32{fill:#FFFFFF;stroke:#FD6141;stroke-width:1.8544;stroke-linecap:round;stroke-linejoin:round;stroke-miterlimit:10;}
	.st33{fill:#FF8976;}
	.st34{fill:#F99441;}
	.st35{clip-path:url(#SVGID_3_);fill:#FFAEC1;}
	.st36{clip-path:url(#SVGID_3_);fill:#FFB072;}
	.st37{fill:#552F5E;}
	.st38{fill:#F29353;}
	.st39{clip-path:url(#SVGID_5_);fill:#FFAEC1;}
	.st40{clip-path:url(#SVGID_5_);fill:#FFB072;}
	.st41{fill:none;stroke:#FFFFFF;stroke-width:0.4986;stroke-miterlimit:10;}
	.st42{fill-rule:evenodd;clip-rule:evenodd;fill:#FFB072;}
	.st43{fill:#E57E55;}
	.st44{opacity:0.5;fill:#E57E55;}
	.st45{opacity:0.7;fill-rule:evenodd;clip-rule:evenodd;fill:#A1ABAD;}
	.st46{fill:none;stroke:#FFFFFF;stroke-width:0.4986;stroke-linecap:round;stroke-linejoin:round;stroke-miterlimit:10;}
	.st47{fill-rule:evenodd;clip-rule:evenodd;fill:#FD6141;}
	.st48{opacity:0.5;}
	.st49{fill-rule:evenodd;clip-rule:evenodd;fill:#DD4026;}
	.st50{clip-path:url(#SVGID_7_);fill:#DD4026;}
	.st51{fill:#F7B614;}
	.st52{opacity:0.5;fill:#FFBE57;}
	.st53{clip-path:url(#SVGID_9_);fill:#DD4026;}
	.st54{fill:none;stroke:#FFFFFF;stroke-width:0.4986;stroke-linecap:round;stroke-miterlimit:10;}
	.st55{opacity:0.3;fill:#764582;}
	.st56{font-family:'MyriadPro-Regular';}
	.st57{font-size:12px;}
	.st58{clip-path:url(#SVGID_12_);fill:#FFAEC1;}
	.st59{clip-path:url(#SVGID_12_);fill:#FFB072;}
	.st60{clip-path:url(#SVGID_14_);fill:#FFAEC1;}
	.st61{clip-path:url(#SVGID_14_);fill:#FFB072;}
	.st62{clip-path:url(#SVGID_16_);fill:#DD4026;}
	.st63{clip-path:url(#SVGID_18_);fill:#DD4026;}
</style>
<defs>
</defs>
<g>
	<path class="st0" d="M519.56,278.65c-1.85-9.52-19.54-11.1-19.54-11.1s10.34-17.24,3.01-25.05s-24.18,10.53-24.18,10.53
		s-5.56-11.59-13.84,0c0,0-13.79-10.53-25.71-5.12c-8.52,3.87-7.26,14.08-5.85,19.6H199.3c-0.2-0.41-0.44-0.81-0.75-1.18
		c-7.91-9.55-30.85-4.63-30.85-4.63s9.58-23.66-6.22-30.83c-15.8-7.17-34.07,6.78-34.07,6.78c-10.96-15.35-18.33,0-18.33,0
		s-22.32-24.3-32.04-13.95c-9.71,10.35,3.98,33.19,3.98,33.19s-23.44,2.1-25.89,14.71c-2.45,12.61,40.56,25.71,40.56,25.71
		l393.26,0.75C488.95,298.05,521.41,288.17,519.56,278.65z"/>
	<g>
		<path class="st1" d="M117.32,293.59c-7.07-20.03-17.81-38.76-31.53-54.97"/>
		<path class="st1" d="M117.32,294.31c0.55-15.81,2.19-31.58,4.92-47.17"/>
		<path class="st1" d="M113.07,283.33c-10.2-5.06-21.15-8.6-32.38-10.46"/>
		<path class="st1" d="M102.66,261.87c2.06-4.78,3.46-9.84,4.17-15"/>
	</g>
	<g>
		<path class="st2" d="M471.18,295.35c5.66-16.04,14.26-31.03,25.25-44.01"/>
		<path class="st2" d="M471.19,295.92c-0.44-12.66-1.76-25.29-3.94-37.76"/>
		<path class="st2" d="M474.58,287.13c8.16-4.05,16.93-6.88,25.92-8.37"/>
		<path class="st2" d="M482.92,269.95c-1.65-3.83-2.77-7.88-3.34-12.01"/>
	</g>
	<g>
		<g>
			<g>
				<path class="st3" d="M97.3,229.28c0.2,0.04,0.34,0.15,0.49,0.25c0.13,0.12,0.27,0.24,0.36,0.42c0.1,0.22,0,0.47-0.22,0.57
					c-0.09,0.04-0.18,0.05-0.27,0.03c-0.19-0.04-0.34-0.15-0.49-0.25c-0.13-0.12-0.27-0.24-0.35-0.42c-0.1-0.21-0.01-0.47,0.21-0.58
					C97.11,229.27,97.21,229.26,97.3,229.28z"/>
			</g>
			<g>
				<path class="st3" d="M98.9,230.57c0.2,0.05,0.34,0.16,0.49,0.26c0.13,0.13,0.26,0.25,0.34,0.43c0.09,0.22-0.01,0.47-0.23,0.57
					c-0.09,0.04-0.18,0.05-0.27,0.03c-0.2-0.05-0.34-0.16-0.48-0.26c-0.13-0.12-0.26-0.24-0.34-0.43c-0.09-0.21,0-0.47,0.22-0.57
					C98.71,230.56,98.81,230.55,98.9,230.57z"/>
			</g>
			<g>
				<path class="st3" d="M100.46,231.9c0.2,0.05,0.34,0.17,0.48,0.27c0.13,0.13,0.26,0.25,0.33,0.44c0.09,0.22-0.03,0.47-0.24,0.56
					c-0.09,0.04-0.19,0.04-0.27,0.02c-0.19-0.05-0.33-0.16-0.47-0.27c-0.13-0.13-0.25-0.25-0.33-0.44
					c-0.09-0.22,0.02-0.47,0.24-0.56C100.28,231.88,100.38,231.88,100.46,231.9z"/>
			</g>
			<g>
				<path class="st3" d="M103.17,234.35c0.19,0.06,0.33,0.18,0.47,0.29c0.12,0.13,0.25,0.26,0.31,0.45
					c0.08,0.22-0.04,0.47-0.27,0.55c-0.09,0.03-0.19,0.04-0.27,0.01c-0.19-0.06-0.32-0.18-0.46-0.29c-0.12-0.13-0.25-0.26-0.31-0.45
					c-0.08-0.22,0.04-0.47,0.26-0.55C102.98,234.33,103.08,234.33,103.17,234.35z"/>
			</g>
			<g>
				<path class="st3" d="M105.03,236.15c0.14,0.01,0.22,0.08,0.31,0.15c0.07,0.09,0.14,0.17,0.15,0.31
					c0.02,0.27-0.18,0.52-0.45,0.55c-0.03,0-0.07,0-0.1,0c-0.14-0.01-0.22-0.08-0.31-0.15c-0.07-0.09-0.14-0.17-0.15-0.31
					c-0.02-0.27,0.18-0.52,0.45-0.55C104.96,236.15,105,236.15,105.03,236.15z"/>
			</g>
			<g>
				<path class="st3" d="M106.56,237.74c0.14,0.02,0.22,0.09,0.31,0.16c0.07,0.09,0.14,0.17,0.15,0.31c0.02,0.28-0.2,0.51-0.47,0.53
					c-0.03,0-0.07,0-0.1,0c-0.14-0.02-0.22-0.09-0.3-0.16c-0.06-0.09-0.13-0.17-0.14-0.31c-0.02-0.27,0.19-0.51,0.46-0.54
					C106.49,237.73,106.53,237.73,106.56,237.74z"/>
			</g>
		</g>
		<g>
			<g>
				<path class="st3" d="M79.4,223.94c1.35-0.86,2.96-1.17,4.52-1.18c1.59,0.04,3.12,0.47,4.54,1.04c1.42,0.6,2.77,1.33,4.06,2.14
					c1.29,0.81,2.52,1.71,3.71,2.65c0.16,0.13,0.19,0.37,0.05,0.54c-0.13,0.16-0.36,0.2-0.52,0.08c-1.22-0.87-2.47-1.7-3.74-2.46
					c-1.27-0.77-2.58-1.47-3.95-2.02c-1.35-0.56-2.77-0.97-4.18-1.02c-1.43-0.01-2.88,0.21-4.1,0.9c-0.17,0.09-0.41,0.02-0.52-0.16
					C79.17,224.28,79.22,224.05,79.4,223.94z"/>
			</g>
			<g>
				<path class="st3" d="M78.95,225.11c-0.05,0.16-0.17,0.24-0.25,0.36c-0.1,0.1-0.2,0.2-0.37,0.24c-0.23,0.06-0.49-0.06-0.57-0.29
					c-0.03-0.07-0.03-0.15-0.01-0.23c0.04-0.18,0.15-0.31,0.25-0.44c0.11-0.12,0.26-0.2,0.44-0.24c0.26-0.05,0.48,0.13,0.52,0.37
					C78.98,224.97,78.97,225.04,78.95,225.11z"/>
			</g>
			<g>
				<path class="st3" d="M77.86,226.32c-0.01,0.17-0.08,0.29-0.15,0.42c-0.1,0.11-0.16,0.24-0.31,0.32
					c-0.2,0.12-0.48,0.06-0.62-0.15c-0.04-0.07-0.06-0.14-0.07-0.22c-0.01-0.18,0.05-0.34,0.14-0.47c0.1-0.13,0.2-0.26,0.36-0.34
					c0.23-0.11,0.48,0,0.59,0.23C77.85,226.17,77.86,226.25,77.86,226.32z"/>
			</g>
			<g>
				<path class="st3" d="M77.06,227.76c-0.06,0.3-0.15,0.58-0.24,0.86l-0.22,0.86c-0.14,0.58-0.27,1.16-0.43,1.75
					c-0.06,0.2-0.27,0.32-0.48,0.27c-0.18-0.04-0.29-0.19-0.29-0.36c-0.02-0.64,0.1-1.26,0.23-1.89l0.29-0.92
					c0.12-0.3,0.27-0.59,0.42-0.87c0.1-0.19,0.37-0.24,0.54-0.12C77.04,227.44,77.08,227.61,77.06,227.76z"/>
			</g>
			<g>
				<path class="st3" d="M76.05,232.76c0.09,0.09,0.09,0.18,0.1,0.27c-0.02,0.09-0.02,0.18-0.12,0.27c-0.22,0.2-0.56,0.2-0.77-0.01
					l-0.01-0.01c-0.09-0.1-0.09-0.19-0.1-0.28c0.02-0.09,0.03-0.19,0.12-0.28c0.21-0.2,0.56-0.19,0.76,0.02L76.05,232.76z"/>
			</g>
			<g>
				<path class="st3" d="M76.05,234.58c0.09,0.09,0.1,0.18,0.12,0.27c-0.01,0.09-0.01,0.18-0.1,0.27c-0.2,0.22-0.54,0.24-0.76,0.05
					l-0.01-0.01c-0.09-0.09-0.1-0.18-0.12-0.27c0.01-0.09,0.01-0.19,0.1-0.28c0.2-0.22,0.54-0.23,0.76-0.03L76.05,234.58z"/>
			</g>
		</g>
	</g>
	<g>
		<g>
			<g>
				<path class="st3" d="M502.49,254.11c0.05,0.21,0.01,0.4-0.02,0.59c-0.05,0.19-0.11,0.37-0.24,0.54
					c-0.16,0.19-0.43,0.22-0.61,0.06c-0.08-0.07-0.12-0.15-0.14-0.24c-0.05-0.21,0-0.39,0.03-0.58c0.05-0.18,0.1-0.37,0.23-0.53
					c0.15-0.19,0.42-0.23,0.61-0.08C502.42,253.93,502.47,254.02,502.49,254.11z"/>
			</g>
			<g>
				<path class="st3" d="M501.97,256.26c0.04,0.21-0.01,0.4-0.04,0.59c-0.06,0.18-0.12,0.37-0.26,0.53
					c-0.16,0.19-0.44,0.2-0.61,0.04c-0.07-0.07-0.12-0.16-0.13-0.25c-0.04-0.21,0.01-0.39,0.05-0.58c0.06-0.18,0.12-0.36,0.25-0.52
					c0.16-0.19,0.43-0.21,0.61-0.05C501.91,256.08,501.96,256.17,501.97,256.26z"/>
			</g>
			<g>
				<path class="st3" d="M501.37,258.38c0.03,0.21-0.02,0.4-0.06,0.59c-0.07,0.18-0.14,0.36-0.28,0.52
					c-0.17,0.18-0.45,0.19-0.62,0.02c-0.07-0.07-0.11-0.16-0.12-0.25c-0.03-0.21,0.03-0.39,0.07-0.58c0.07-0.18,0.13-0.36,0.27-0.52
					c0.17-0.18,0.44-0.2,0.62-0.03C501.31,258.2,501.36,258.29,501.37,258.38z"/>
			</g>
			<g>
				<path class="st3" d="M500.14,262.09c0.02,0.21-0.04,0.4-0.1,0.58c-0.08,0.18-0.15,0.36-0.31,0.5c-0.18,0.17-0.45,0.17-0.62-0.01
					c-0.07-0.07-0.1-0.17-0.11-0.26c-0.02-0.21,0.04-0.39,0.1-0.58c0.08-0.18,0.15-0.35,0.3-0.5c0.18-0.17,0.45-0.17,0.62,0
					C500.09,261.9,500.13,261.99,500.14,262.09z"/>
			</g>
			<g>
				<path class="st3" d="M499.15,264.69c0.04,0.14,0,0.25-0.03,0.37c-0.05,0.1-0.1,0.21-0.23,0.28c-0.25,0.14-0.55,0.05-0.68-0.2
					c-0.02-0.03-0.03-0.06-0.04-0.09c-0.04-0.14,0-0.25,0.03-0.36c0.05-0.1,0.1-0.21,0.23-0.28c0.24-0.14,0.55-0.06,0.68,0.19
					C499.13,264.62,499.14,264.66,499.15,264.69z"/>
			</g>
			<g>
				<path class="st3" d="M498.24,266.86c0.04,0.14,0,0.25-0.04,0.37c-0.06,0.1-0.11,0.21-0.24,0.28c-0.25,0.14-0.55,0.03-0.68-0.22
					c-0.01-0.03-0.03-0.06-0.03-0.09c-0.04-0.14,0-0.25,0.04-0.36c0.06-0.1,0.11-0.2,0.24-0.27c0.25-0.14,0.55-0.04,0.68,0.21
					C498.22,266.79,498.23,266.82,498.24,266.86z"/>
			</g>
		</g>
		<g>
			<g>
				<path class="st3" d="M491.38,244.97c1.4-0.84,2.87-1.6,4.49-2.04c1.58-0.44,3.46-0.55,5.04,0.37c0.79,0.48,1.36,1.25,1.67,2.06
					c0.31,0.82,0.45,1.66,0.52,2.5c0.08,1.67-0.12,3.31-0.44,4.91c-0.05,0.22-0.26,0.36-0.47,0.32c-0.2-0.04-0.33-0.24-0.3-0.45
					c0.24-1.57,0.37-3.16,0.26-4.71c-0.12-1.51-0.56-3.09-1.77-3.78c-1.2-0.73-2.81-0.71-4.28-0.31c-1.5,0.37-2.94,1.05-4.34,1.8
					c-0.19,0.11-0.43,0.04-0.54-0.15C491.13,245.32,491.19,245.09,491.38,244.97z"/>
			</g>
			<g>
				<path class="st3" d="M490.77,246.14c-0.09,0.16-0.22,0.25-0.35,0.35c-0.14,0.07-0.28,0.16-0.46,0.17
					c-0.25,0.02-0.47-0.17-0.48-0.42c0-0.08,0.02-0.16,0.05-0.23c0.09-0.17,0.22-0.27,0.35-0.36c0.15-0.08,0.29-0.16,0.48-0.17
					c0.26-0.01,0.46,0.18,0.47,0.43C490.82,246,490.8,246.07,490.77,246.14z"/>
			</g>
			<g>
				<path class="st3" d="M489.24,247.15c-0.08,0.17-0.21,0.26-0.33,0.37c-0.14,0.08-0.27,0.17-0.46,0.19
					c-0.25,0.03-0.48-0.15-0.5-0.4c-0.01-0.08,0.01-0.16,0.04-0.23c0.08-0.17,0.21-0.27,0.33-0.38c0.14-0.08,0.28-0.17,0.47-0.19
					c0.26-0.03,0.47,0.16,0.49,0.41C489.29,247,489.27,247.08,489.24,247.15z"/>
			</g>
			<g>
				<path class="st3" d="M487.75,248.23c-0.47,0.47-0.98,0.87-1.47,1.29c-0.52,0.4-1.02,0.82-1.57,1.17
					c-0.19,0.12-0.43,0.07-0.55-0.11c-0.1-0.15-0.07-0.35,0.04-0.48c0.44-0.5,0.95-0.93,1.45-1.36c0.52-0.41,1.05-0.81,1.63-1.14
					c0.2-0.11,0.44-0.05,0.54,0.15C487.91,247.91,487.88,248.1,487.75,248.23z"/>
			</g>
			<g>
				<path class="st3" d="M483.46,251.8c-0.01,0.13-0.08,0.2-0.14,0.28c-0.08,0.06-0.16,0.12-0.29,0.12c-0.3,0-0.54-0.25-0.53-0.55
					l0-0.02c0.01-0.13,0.08-0.21,0.14-0.28c0.08-0.06,0.16-0.12,0.29-0.12c0.31,0,0.54,0.25,0.52,0.56L483.46,251.8z"/>
			</g>
			<g>
				<path class="st3" d="M482.04,253.15c-0.01,0.13-0.07,0.2-0.13,0.28c-0.08,0.06-0.15,0.12-0.28,0.13
					c-0.3,0.01-0.55-0.22-0.55-0.53l0-0.02c0.01-0.14,0.07-0.21,0.13-0.29c0.08-0.06,0.15-0.12,0.29-0.13
					c0.31-0.01,0.55,0.24,0.54,0.54L482.04,253.15z"/>
			</g>
		</g>
	</g>
</g>
<g>
	<path class="st4" d="M292.28,193.05c-59.89-0.94-220.05,48.64-239.59,0c-16.1-40.08,44.11-37.01,47.61-70.19
		c3.5-33.19-12.18-47.32,12.81-62.68c24.99-15.36,65.71,5.97,92.61-15.36c26.89-21.33,40.93-36.87,101.47-44.25
		c60.54-7.37,105.35,60.84,131.25,67.6c25.9,6.76,63.01-10.45,81.21,10.45c18.2,20.89-40.61,67.14-28,86.42
		c12.6,19.28,43.46,29.73,31.53,56.77C511.25,248.84,350.58,193.96,292.28,193.05z"/>
	<g>
		<g>
			<g>
				<path class="st3" d="M53.27,174.49c-0.01-0.27,0.07-0.52,0.15-0.76c0.11-0.23,0.21-0.47,0.38-0.67c0.2-0.24,0.5-0.23,0.64-0.02
					c0.05,0.09,0.09,0.2,0.08,0.32c-0.01,0.26-0.09,0.49-0.17,0.73c-0.11,0.22-0.19,0.45-0.35,0.66c-0.19,0.24-0.47,0.27-0.63,0.07
					C53.3,174.72,53.27,174.61,53.27,174.49z"/>
			</g>
			<g>
				<path class="st3" d="M54.37,171.8c0.03-0.27,0.15-0.5,0.25-0.73c0.13-0.22,0.25-0.45,0.46-0.62c0.24-0.2,0.53-0.17,0.64,0.06
					c0.05,0.1,0.06,0.21,0.04,0.32c-0.05,0.25-0.15,0.48-0.26,0.7c-0.12,0.21-0.25,0.42-0.44,0.6c-0.21,0.21-0.5,0.21-0.63-0.01
					C54.38,172.04,54.36,171.92,54.37,171.8z"/>
			</g>
			<g>
				<path class="st3" d="M55.8,169.28c0.06-0.26,0.2-0.48,0.33-0.7c0.15-0.2,0.31-0.4,0.53-0.56c0.26-0.18,0.54-0.12,0.62,0.13
					c0.04,0.1,0.03,0.22,0,0.33c-0.07,0.25-0.21,0.45-0.34,0.66c-0.15,0.2-0.29,0.4-0.5,0.55c-0.25,0.18-0.53,0.14-0.64-0.09
					C55.77,169.52,55.77,169.4,55.8,169.28z"/>
			</g>
			<g>
				<path class="st3" d="M58.97,165.25c0.11-0.25,0.28-0.43,0.45-0.62c0.19-0.17,0.37-0.35,0.62-0.46c0.29-0.13,0.55-0.02,0.59,0.24
					c0.02,0.11,0,0.22-0.05,0.32c-0.12,0.24-0.29,0.41-0.45,0.6c-0.18,0.17-0.36,0.33-0.59,0.45c-0.27,0.14-0.54,0.05-0.6-0.2
					C58.91,165.48,58.92,165.37,58.97,165.25z"/>
			</g>
			<g>
				<path class="st3" d="M61.62,162.75c0.06-0.17,0.17-0.27,0.28-0.38c0.13-0.09,0.25-0.18,0.43-0.2c0.34-0.05,0.57,0.18,0.51,0.49
					c-0.01,0.04-0.02,0.08-0.03,0.11c-0.06,0.17-0.17,0.26-0.28,0.37c-0.12,0.08-0.24,0.17-0.41,0.2c-0.33,0.05-0.57-0.16-0.53-0.48
					C61.6,162.83,61.61,162.79,61.62,162.75z"/>
			</g>
			<g>
				<path class="st3" d="M64.09,160.9c0.08-0.16,0.2-0.25,0.32-0.35c0.14-0.07,0.27-0.15,0.45-0.16c0.35-0.01,0.54,0.25,0.45,0.55
					c-0.01,0.04-0.03,0.07-0.04,0.11c-0.08,0.16-0.2,0.24-0.31,0.33c-0.13,0.07-0.26,0.15-0.43,0.16c-0.34,0.02-0.55-0.21-0.48-0.53
					C64.05,160.97,64.07,160.93,64.09,160.9z"/>
			</g>
		</g>
		<g>
			<g>
				<path class="st3" d="M59.78,199.84c-0.73-0.77-1.34-1.65-2.01-2.48c-0.57-0.89-1.16-1.78-1.7-2.7
					c-0.47-0.95-0.98-1.89-1.42-2.86l-1.17-2.96c-0.68-2.02-1.13-4.13-1.26-6.27c-0.13-2.14,0.08-4.3,0.64-6.36
					c0.08-0.29,0.31-0.46,0.52-0.4c0.2,0.06,0.3,0.32,0.24,0.59c-0.46,2-0.61,4.07-0.45,6.11c0.14,2.04,0.59,4.07,1.26,6.01
					l1.12,2.9c0.42,0.94,0.91,1.86,1.36,2.79c0.51,0.9,1.06,1.77,1.6,2.65c0.63,0.82,1.19,1.69,1.87,2.47
					c0.19,0.21,0.21,0.5,0.05,0.64C60.25,200.1,59.98,200.04,59.78,199.84z"/>
			</g>
			<g>
				<path class="st3" d="M61.28,200.45c0.21,0.09,0.34,0.24,0.51,0.38c0.14,0.15,0.29,0.29,0.39,0.5c0.13,0.28,0.01,0.56-0.26,0.6
					c-0.09,0.01-0.18,0-0.27-0.03c-0.22-0.08-0.38-0.22-0.55-0.35c-0.15-0.16-0.28-0.33-0.36-0.55c-0.11-0.3,0.03-0.56,0.29-0.59
					C61.1,200.4,61.19,200.41,61.28,200.45z"/>
			</g>
			<g>
				<path class="st3" d="M63,202.08c0.22,0.07,0.36,0.22,0.54,0.33c0.16,0.14,0.32,0.27,0.43,0.46c0.15,0.27,0.06,0.55-0.21,0.62
					c-0.09,0.02-0.18,0.02-0.27-0.01c-0.23-0.06-0.4-0.19-0.58-0.31c-0.17-0.13-0.31-0.3-0.42-0.51c-0.14-0.29-0.03-0.56,0.24-0.61
					C62.82,202.04,62.91,202.05,63,202.08z"/>
			</g>
			<g>
				<path class="st3" d="M64.86,203.55c0.74,0.43,1.46,0.85,2.18,1.27c0.73,0.41,1.46,0.82,2.2,1.23c0.25,0.15,0.35,0.41,0.23,0.59
					c-0.1,0.15-0.33,0.19-0.55,0.12c-0.84-0.26-1.61-0.67-2.38-1.08c-0.75-0.45-1.48-0.93-2.14-1.5c-0.22-0.2-0.26-0.49-0.1-0.64
					C64.44,203.43,64.67,203.44,64.86,203.55z"/>
			</g>
			<g>
				<path class="st3" d="M71.24,206.84c0.15-0.05,0.27-0.02,0.39,0.01c0.12,0.05,0.23,0.09,0.33,0.22c0.21,0.29,0.13,0.62-0.21,0.74
					l-0.02,0.01c-0.15,0.05-0.28,0.01-0.41-0.01c-0.12-0.05-0.24-0.1-0.34-0.22c-0.21-0.29-0.1-0.62,0.23-0.73L71.24,206.84z"/>
			</g>
			<g>
				<path class="st3" d="M73.68,207.49c0.14-0.07,0.26-0.04,0.38-0.03c0.12,0.03,0.24,0.06,0.35,0.17c0.24,0.24,0.24,0.59-0.09,0.76
					l-0.02,0.01c-0.14,0.07-0.28,0.05-0.41,0.05c-0.13-0.04-0.25-0.07-0.37-0.18c-0.25-0.26-0.18-0.6,0.13-0.75L73.68,207.49z"/>
			</g>
		</g>
	</g>
	<path class="st5" d="M294.37,31.61c-28.05,4.56-49.87,17.33-65.46,38.31c-14.55,19.15-11.43,43.78,1.04,62.93
		c11.43,18.24,33.25,24.63,54.03,29.19c58.19,13.68,111.18,31.01,166.25,48.34c23.9,7.3,51.95,18.24,72.73,1.82
		c0.01-0.01,0.02-0.02,0.03-0.03c2.03-1.61,2.91-4.07,2.42-6.44c-3.31-16.14-24.01-25.78-33.77-40.71
		c-12.6-19.28,46.21-65.52,28-86.42c-18.2-20.89-55.31-3.69-81.21-10.45c-3.07-0.8-6.41-2.47-10.01-4.77
		C382.09,53.1,345.48,23.69,294.37,31.61z"/>
	<path class="st6" d="M500.67,224.72c-24.48,0-66.52-9.39-107.17-18.48c-40.01-8.94-77.8-17.39-101.12-17.75
		c-0.59-0.01-1.21-0.01-1.82-0.01c-19.18,0-47.42,4.59-77.32,9.46c-34.48,5.61-73.56,11.96-103.89,11.96
		c-29.86,0-46.8-6.01-51.76-18.36c-7.67-19.09,3.65-25.9,19.31-35.34c12.56-7.57,26.8-16.14,28.57-32.92
		c1.25-11.85,0.13-21.46-0.76-29.19c-1.67-14.41-2.51-21.64,11.38-30.18c5.99-3.68,13.43-5.25,24.9-5.25
		c4.37,0,8.83,0.22,13.55,0.44c4.78,0.23,9.71,0.47,14.62,0.47c11.97,0,27.33-1.29,40.05-11.38c2.47-1.96,4.84-3.88,7.14-5.74
		c22.16-17.92,38.17-30.87,91.56-37.38c2.8-0.34,5.64-0.51,8.45-0.51c33.91,0,62.73,24.56,85.89,44.29
		c13.82,11.78,24.74,21.08,34.71,23.68c4.83,1.26,10.35,1.87,16.87,1.87c6.08,0,12.36-0.52,18.43-1.02
		c6.05-0.5,11.76-0.98,17.25-0.98c12.75,0,20.53,2.68,26.01,8.97c7.53,8.64-4,26.19-14.18,41.67c-11.12,16.92-21.63,32.9-14.2,44.25
		c4.29,6.56,10.34,12.01,16.19,17.27c12.28,11.05,21.98,19.78,15,35.58C517.04,223.09,510.76,224.72,500.67,224.72z"/>
</g>
<g>
	<path class="st7" d="M462.29,274.19H149.52c-2.13,0-3.85-1.73-3.85-3.85V101.08c0-2.13,1.73-3.85,3.85-3.85h312.77
		c2.13,0,3.85,1.73,3.85,3.85v169.26C466.15,272.46,464.42,274.19,462.29,274.19z"/>
	<path class="st8" d="M456.69,267.51H143.92c-2.13,0-3.85-1.73-3.85-3.85V94.4c0-2.13,1.73-3.85,3.85-3.85h312.77
		c2.13,0,3.85,1.73,3.85,3.85v169.26C460.54,265.78,458.82,267.51,456.69,267.51z"/>
	<g>
		<path class="st9" d="M452.81,260.83H136.58c-1.17,0-2.12-0.95-2.12-2.12V85.99c0-1.17,0.95-2.12,2.12-2.12h316.23
			c1.17,0,2.12,0.95,2.12,2.12V258.7C454.94,259.88,453.99,260.83,452.81,260.83z"/>
		<path class="st10" d="M152.32,99.03h20.5v-1.21h-20.5V99.03z M147.5,99.63h2.41v-2.41h-2.41V99.63z M152.32,105.66h20.5v-1.21
			h-20.5V105.66z M147.5,106.26h2.41v-2.41h-2.41V106.26z M152.32,112.29h20.5v-1.21h-20.5V112.29z M147.5,112.89h2.41v-2.41h-2.41
			V112.89z"/>
		<path class="st11" d="M223.41,211.8h-60.79c-8.35,0-15.11-6.77-15.11-15.11v-58.01c0-8.35,6.77-15.11,15.11-15.11h60.79
			c8.35,0,15.11,6.77,15.11,15.11v58.01C238.52,205.03,231.75,211.8,223.41,211.8z"/>
		<path class="st11" d="M325.65,211.8h-60.79c-8.35,0-15.11-6.77-15.11-15.11v-58.01c0-8.35,6.77-15.11,15.11-15.11h60.79
			c8.35,0,15.11,6.77,15.11,15.11v58.01C340.76,205.03,333.99,211.8,325.65,211.8z"/>
		<path class="st11" d="M427.89,211.8h-60.79c-8.35,0-15.11-6.77-15.11-15.11v-58.01c0-8.35,6.77-15.11,15.11-15.11h60.79
			c8.35,0,15.11,6.77,15.11,15.11v58.01C443,205.03,436.23,211.8,427.89,211.8z"/>
		<g>
			<g>
				<g>
					<path class="st7" d="M420.72,106.24l-1.53-10.19c-0.04-0.28-0.28-0.49-0.56-0.49l-2.74-0.02l0.01-1.27l2.74,0.02
						c0.91,0.01,1.67,0.66,1.81,1.56l0.17,1.13l17.29,0.11l-1.78,8.04L420.72,106.24z M420.81,98.26l1,6.64l13.29-0.95l1.23-5.59
						L420.81,98.26z"/>
				</g>
				<g>
					<path class="st7" d="M436.36,108.64l-14.94-0.09c-0.32,0-0.62-0.14-0.83-0.39c-0.21-0.25-0.3-0.57-0.25-0.88l0.29-1.81
						l1.25,0.2l-0.26,1.62l14.74,0.09L436.36,108.64z"/>
				</g>
				<path class="st12" d="M425.23,111.14c-0.01,0.94-0.77,1.7-1.72,1.69c-0.94-0.01-1.7-0.77-1.7-1.72c0.01-0.94,0.77-1.7,1.72-1.69
					C424.48,109.43,425.24,110.2,425.23,111.14z"/>
				<path class="st12" d="M434.18,111.2c-0.01,0.94-0.77,1.7-1.72,1.69c-0.94-0.01-1.7-0.77-1.7-1.72c0.01-0.94,0.77-1.7,1.72-1.69
					C433.43,109.49,434.19,110.26,434.18,111.2z"/>
			</g>
		</g>
		<line class="st13" x1="249.3" y1="217.9" x2="340.76" y2="217.9"/>
	</g>
	<g>
		<path class="st14" d="M330.62,179.54c0,1.25-14.94,2.26-33.36,2.26c-18.42,0-33.36-1.01-33.36-2.26c0-1.25,14.94-2.26,33.36-2.26
			C315.68,177.28,330.62,178.3,330.62,179.54z"/>
		<g>
			<g>
				<path class="st15" d="M270.7,155.97c0,0,0.67-1.69,6.51,0.53c3.17,1.2,7.3,4.11,15.33,0.6c0,0,2.45,8.12-7.79,7.41
					C274.51,163.8,270.7,155.97,270.7,155.97z"/>
				<path class="st16" d="M327.65,169.04l2.37,0.62c1.35,0.71,1.28,4.3,0.16,5.41c0,0-9.58,5.6-37.62,6.07
					c-16.13-0.31-26.91-3.07-27.41-4.16c-0.5-1.1-0.54-3.55-0.44-5.28l3.04-3.54L327.65,169.04z"/>
				<path class="st17" d="M270.7,155.97c0,0-3.16,3.03-3.54,5.53c-0.54,3.59-1.15,5.37-0.76,9c0,0,9.1,3.55,24.25,3.72
					c7.48,0.09,18.21-0.37,26.06-1.76c6.68-1.19,13.3-2.79,13.3-2.79c-1.93-6.75-7.77-4.25-16.08-6.88
					c-5.66-1.79-19.13-12.91-19.13-12.91s-3.12,2.32-3.29,3.51c-0.11,0.75,1.38,2.71,1.38,2.71s-0.37,6.39-6.75,6.81
					C279.95,163.31,270.7,155.97,270.7,155.97z"/>
				<path class="st18" d="M330.02,169.66c0,0-5.03,3.41-12.37,4.83c-7.5,1.46-19.76,1.94-27.4,1.65
					c-8.44-0.32-25.54-4.44-25.54-4.44"/>
				<path class="st19" d="M292.9,156.09c0,0,3.23,0.01,4.37,0.41c2.69,0.94,10.48,7.16,16.32,7.9"/>
				<path class="st16" d="M302.54,155.85l-2.6,4.2c-0.36,0.5-1.92-0.62-1.56-1.12l2.41-4.44
					C301.31,153.83,303.06,155.18,302.54,155.85z"/>
				<path class="st16" d="M306.33,158.09l-2.74,4.46c-0.33,0.75-2.08-0.03-1.75-0.78l2.73-5.03
					C305.1,156.06,306.85,157.42,306.33,158.09z"/>
				<path class="st16" d="M310.11,160.32l-2.77,4.48c-0.29,0.63-2.01-0.17-1.72-0.8l2.73-5.03
					C308.88,158.3,310.63,159.65,310.11,160.32z"/>
				<path class="st16" d="M294.63,158.18c0.05-1.23,2.03-1.15,1.98,0.08l-0.79,7.47c0,1.08-1.13,1.08-1.13,0L294.63,158.18z"/>
				<path class="st19" d="M287.73,174.28c0,0,0.91-3.33,4.11-4.84c3.58-1.69,12.09,1.5,16.8-1.11c1.38-0.77,4.95-3.94,4.95-3.94"/>
				<path class="st19" d="M268,159.53c0,0,5.05,2.26,7.4,5.24c1.06,1.34,2.53,8.57,2.53,8.57"/>
			</g>
		</g>
	</g>
	<g>
		<path class="st14" d="M225.8,179.54c0,1.25-14.94,2.26-33.36,2.26c-18.42,0-33.36-1.01-33.36-2.26c0-1.25,14.94-2.26,33.36-2.26
			C210.86,177.28,225.8,178.3,225.8,179.54z"/>
		<g>
			<g>
				<path class="st15" d="M165.89,155.97c0,0,0.67-1.69,6.51,0.53c3.17,1.2,7.3,4.11,15.33,0.6c0,0,2.45,8.12-7.79,7.41
					C169.69,163.8,165.89,155.97,165.89,155.97z"/>
				<path class="st16" d="M222.84,169.04l2.37,0.62c1.35,0.71,1.28,4.3,0.16,5.41c0,0-9.58,5.6-37.62,6.07
					c-16.13-0.31-26.91-3.07-27.41-4.16c-0.5-1.1-0.54-3.55-0.44-5.28l3.04-3.54L222.84,169.04z"/>
				<path class="st4" d="M165.89,155.97c0,0-3.16,3.03-3.54,5.53c-0.54,3.59-1.15,5.37-0.76,9c0,0,9.1,3.55,24.25,3.72
					c7.48,0.09,18.21-0.37,26.06-1.76c6.68-1.19,13.3-2.79,13.3-2.79c-1.93-6.75-7.77-4.25-16.08-6.88
					c-5.66-1.79-19.13-12.91-19.13-12.91s-3.12,2.32-3.29,3.51c-0.11,0.75,1.38,2.71,1.38,2.71s-0.37,6.39-6.75,6.81
					C175.13,163.31,165.89,155.97,165.89,155.97z"/>
				<path class="st18" d="M225.21,169.66c0,0-5.03,3.41-12.37,4.83c-7.5,1.46-19.76,1.94-27.4,1.65
					c-8.44-0.32-25.54-4.44-25.54-4.44"/>
				<path class="st20" d="M188.08,156.09c0,0,3.23,0.01,4.37,0.41c2.69,0.94,10.48,7.16,16.32,7.9"/>
				<path class="st16" d="M197.72,155.85l-2.6,4.2c-0.36,0.5-1.92-0.62-1.56-1.12l2.41-4.44
					C196.49,153.83,198.24,155.18,197.72,155.85z"/>
				<path class="st16" d="M201.51,158.09l-2.74,4.46c-0.33,0.75-2.08-0.03-1.75-0.78l2.73-5.03
					C200.28,156.06,202.03,157.42,201.51,158.09z"/>
				<path class="st16" d="M205.3,160.32l-2.77,4.48c-0.29,0.63-2.01-0.17-1.72-0.8l2.73-5.03
					C204.07,158.3,205.82,159.65,205.3,160.32z"/>
				<path class="st16" d="M189.82,158.18c0.05-1.23,2.03-1.15,1.98,0.08l-0.79,7.47c0,1.08-1.13,1.08-1.13,0L189.82,158.18z"/>
				<path id="SVGID_x5F_1_x5F_" class="st18" d="M182.91,174.28c0,0,0.91-3.33,4.11-4.84c3.58-1.69,12.09,1.5,16.8-1.11
					c1.38-0.77,4.95-3.94,4.95-3.94"/>
				<text>				<textPath  xlink:href="#SVGID_x5F_1_x5F_" startOffset="66.6667%">
				</textPath>
</text>
				<path class="st20" d="M163.18,159.53c0,0,5.05,2.26,7.4,5.24c1.06,1.34,2.53,8.57,2.53,8.57"/>
			</g>
		</g>
	</g>
	<g>
		<path class="st14" d="M430.64,179.54c0,1.25-14.94,2.26-33.36,2.26c-18.42,0-33.36-1.01-33.36-2.26c0-1.25,14.94-2.26,33.36-2.26
			C415.71,177.28,430.64,178.3,430.64,179.54z"/>
		<g>
			<g>
				<path class="st21" d="M370.73,155.97c0,0,0.67-1.69,6.51,0.53c3.17,1.2,7.3,4.11,15.33,0.6c0,0,2.45,8.12-7.79,7.41
					C374.54,163.8,370.73,155.97,370.73,155.97z"/>
				<path class="st16" d="M427.68,169.04l2.37,0.62c1.35,0.71,1.28,4.3,0.16,5.41c0,0-9.58,5.6-37.62,6.07
					c-16.13-0.31-26.91-3.07-27.41-4.16c-0.5-1.1-0.54-3.55-0.44-5.28l3.04-3.54L427.68,169.04z"/>
				<path class="st0" d="M370.73,155.97c0,0-3.16,3.03-3.54,5.53c-0.54,3.59-1.15,5.37-0.76,9c0,0,9.1,3.55,24.25,3.72
					c7.48,0.09,18.21-0.37,26.06-1.76c6.68-1.19,13.3-2.79,13.3-2.79c-1.93-6.75-7.77-4.25-16.08-6.88
					c-5.66-1.79-19.13-12.91-19.13-12.91s-3.12,2.32-3.29,3.51c-0.11,0.75,1.38,2.71,1.38,2.71s-0.37,6.39-6.75,6.81
					C379.97,163.31,370.73,155.97,370.73,155.97z"/>
				<path class="st18" d="M430.05,169.66c0,0-5.03,3.41-12.37,4.83c-7.5,1.46-19.76,1.94-27.4,1.65
					c-8.44-0.32-25.54-4.44-25.54-4.44"/>
				<path class="st20" d="M392.92,156.09c0,0,3.23,0.01,4.37,0.41c2.69,0.94,10.48,7.16,16.32,7.9"/>
				<path class="st16" d="M402.57,155.85l-2.6,4.2c-0.36,0.5-1.92-0.62-1.56-1.12l2.41-4.44
					C401.33,153.83,403.09,155.18,402.57,155.85z"/>
				<path class="st16" d="M406.35,158.09l-2.74,4.46c-0.33,0.75-2.08-0.03-1.75-0.78l2.73-5.03
					C405.12,156.06,406.87,157.42,406.35,158.09z"/>
				<path class="st16" d="M410.14,160.32l-2.77,4.48c-0.29,0.63-2.01-0.17-1.72-0.8l2.73-5.03
					C408.91,158.3,410.66,159.65,410.14,160.32z"/>
				<path class="st16" d="M394.66,158.18c0.05-1.23,2.03-1.15,1.98,0.08l-0.79,7.47c0,1.08-1.13,1.08-1.13,0L394.66,158.18z"/>
				<path class="st20" d="M387.75,174.28c0,0,0.91-3.33,4.11-4.84c3.58-1.69,12.09,1.5,16.8-1.11c1.38-0.77,4.95-3.94,4.95-3.94"/>
				<path class="st20" d="M368.02,159.53c0,0,5.05,2.26,7.4,5.24c1.06,1.34,2.53,8.57,2.53,8.57"/>
			</g>
		</g>
	</g>
	<g>
		<path class="st7" d="M259.59,139.8v0.1c0,0.52-0.13,0.74-0.43,0.74h-2.89c-0.3,0-0.43-0.22-0.43-0.74v-0.1
			c0-0.52,0.13-0.74,0.43-0.74h2.89C259.46,139.06,259.59,139.28,259.59,139.8z"/>
		<path class="st7" d="M266.31,135.79c0,2.06-1.14,2.49-2.13,2.49c-0.99,0-2.13-0.43-2.13-2.49c0-2.06,1.14-2.49,2.13-2.49
			C265.17,133.31,266.31,133.73,266.31,135.79z M263.5,135.79c0,0.58,0.13,1.27,0.68,1.27c0.55,0,0.67-0.7,0.67-1.27
			c0-0.58-0.11-1.21-0.67-1.21C263.62,134.58,263.5,135.21,263.5,135.79z M270.26,133.6c0,0.04-0.03,0.12-0.07,0.21l-5.07,9.59
			c-0.14,0.27-0.33,0.41-0.62,0.41h-0.62c-0.2,0-0.3-0.09-0.3-0.19c0-0.06,0.03-0.13,0.07-0.22l5.07-9.59
			c0.14-0.27,0.33-0.41,0.62-0.41h0.62C270.17,133.39,270.26,133.48,270.26,133.6z M271.8,141.42c0,2.06-1.14,2.49-2.13,2.49
			c-0.99,0-2.13-0.43-2.13-2.49c0-2.06,1.14-2.49,2.13-2.49C270.66,138.93,271.8,139.36,271.8,141.42z M268.99,141.42
			c0,0.58,0.13,1.27,0.68,1.27c0.55,0,0.67-0.7,0.67-1.27c0-0.58-0.11-1.21-0.67-1.21C269.12,140.2,268.99,140.84,268.99,141.42z"/>
	</g>
	<g>
		<g>
			<path class="st17" d="M320.28,188.17v0.98c1.39,0.02,3.86,0.59,3.86,1.39c0,0.37-0.54,1.29-0.78,1.29
				c-0.37,0-1.24-0.88-3.07-0.93v5.69c2.17,0.78,4.66,1.66,4.66,5.03c0,2.78-1.81,4.54-4.66,4.78v1.22c0,0.27-0.15,0.39-0.49,0.39
				c-0.34,0-0.49-0.12-0.49-0.39v-1.2c-2.76-0.07-4.83-1.12-4.83-1.78c0-0.39,0.59-1.32,0.85-1.32c0.29,0,1.61,1.27,3.98,1.34v-6.3
				c-2.15-0.83-4.51-1.68-4.51-4.83c0-2.39,1.76-4.05,4.51-4.34v-1.02c0-0.27,0.15-0.39,0.49-0.39
				C320.13,187.78,320.28,187.9,320.28,188.17z M317.01,193.63c0,1.39,1,2.05,2.29,2.59v-5.25
				C317.91,191.22,317.01,192.1,317.01,193.63z M320.28,204.59c1.44-0.27,2.44-1.39,2.44-2.98c0-1.54-1.1-2.27-2.44-2.85V204.59z"/>
		</g>
		<path class="st17" d="M309.29,207.21h-39.02c-2.17,0-3.93-1.76-3.93-3.93v-0.58c0-2.17,1.76-3.93,3.93-3.93h39.02
			c2.17,0,3.93,1.76,3.93,3.93v0.58C313.23,205.45,311.47,207.21,309.29,207.21z"/>
	</g>
</g>
<g>
	<path class="st22" d="M594.29,390.65H2.34c-2.2,0-3.18-2.78-1.46-4.15l88.65-70.82c1.9-1.52,4.32-2.35,6.83-2.35h403.9
		c2.51,0,4.93,0.84,6.83,2.35l88.65,70.82C597.47,387.87,596.5,390.65,594.29,390.65z"/>
	<g>
		<path class="st23" d="M592.03,361.7H4.6l91.09-72.76c1.85-1.47,4.2-2.29,6.63-2.29h391.99c2.43,0,4.78,0.81,6.63,2.29
			L592.03,361.7z"/>
		<polygon class="st8" points="533.8,355.19 62.83,355.19 129.14,293.16 467.49,293.16 		"/>
		<polygon class="st3" points="528.02,355.19 68.61,355.19 133.29,295.82 463.34,295.82 		"/>
		<path class="st8" d="M577.71,381.22H18.92c-7.91,0-14.32-6.41-14.32-14.32v-5.2h587.42v5.2
			C592.03,374.81,585.62,381.22,577.71,381.22z"/>
		<line class="st24" x1="4.6" y1="369.29" x2="592.03" y2="369.29"/>
		<path class="st7" d="M202,374.99h-80.35c-2.64,0-4.78-2.14-4.78-4.78v-0.71c0-2.64,2.14-4.78,4.78-4.78H202
			c2.64,0,4.78,2.14,4.78,4.78v0.71C206.78,372.86,204.64,374.99,202,374.99z"/>
		<path class="st23" d="M202.54,374.99h-81.43c-2.34,0-4.24-1.9-4.24-4.24v-0.63c0-2.34,1.9-4.24,4.24-4.24h81.43
			c2.34,0,4.24,1.9,4.24,4.24v0.63C206.78,373.1,204.88,374.99,202.54,374.99z"/>
		<g>
			<polygon class="st8" points="490.34,304.55 523.72,334.07 541.6,334.07 541.6,331.72 490.34,302.2 			"/>
			<polygon class="st25" points="490.34,302.2 523.72,331.72 541.6,331.72 504.49,302.2 			"/>
		</g>
		<ellipse class="st3" cx="82.65" cy="316.29" rx="14.04" ry="6.11"/>
		<path class="st7" d="M92.49,315.84c0,2.11-4.4,3.83-9.84,3.83c-5.43,0-9.84-1.71-9.84-3.83c0-2.11,4.4-3.83,9.84-3.83
			C88.09,312.01,92.49,313.73,92.49,315.84z"/>
		<path class="st3" d="M83.82,314.97c0,0.73-1.52,1.32-3.39,1.32c-1.87,0-3.39-0.59-3.39-1.32c0-0.73,1.52-1.32,3.39-1.32
			C82.3,313.66,83.82,314.25,83.82,314.97z"/>
	</g>
</g>
<g>
	<g>
		<path class="st23" d="M475.71,68.39H152.13c-7.39,0-13.38-5.99-13.38-13.38v-1.98c0-7.39,5.99-13.38,13.38-13.38h323.58
			c7.39,0,13.38,5.99,13.38,13.38v1.98C489.09,62.4,483.1,68.39,475.71,68.39z"/>
		<circle class="st23" cx="86.11" cy="54.02" r="14.37"/>
		<circle class="st23" cx="119.62" cy="54.02" r="14.37"/>
	</g>
</g>
<polygon class="st23" points="509.02,38.92 513.77,49.08 524.89,50.45 516.7,58.11 518.83,69.11 509.02,63.69 499.21,69.11 
	501.33,58.11 493.15,50.45 504.27,49.08 "/>
<path class="st9" d="M475.71,63.42H152.13c-7.39,0-13.38-5.99-13.38-13.38v-1.98c0-7.39,5.99-13.38,13.38-13.38h323.58
	c7.39,0,13.38,5.99,13.38,13.38v1.98C489.09,57.43,483.1,63.42,475.71,63.42z"/>
<path class="st26" d="M209.17,56.56h-28.2c-3.65,0-6.6-2.96-6.6-6.6l0,0c0-3.65,2.96-6.6,6.6-6.6h28.2c3.65,0,6.6,2.96,6.6,6.6l0,0
	C215.77,53.61,212.82,56.56,209.17,56.56z"/>
<circle class="st9" cx="86.11" cy="49.05" r="14.37"/>
<circle class="st9" cx="119.62" cy="49.05" r="14.37"/>
<polygon class="st27" points="509.02,33.95 513.77,44.1 524.89,45.48 516.7,53.14 518.83,64.14 509.02,58.72 499.21,64.14 
	501.33,53.14 493.15,45.48 504.27,44.1 "/>
<polygon class="st7" points="87.89,40.29 78.79,49.3 87.89,58.48 89.62,56.75 82.26,49.3 89.62,42.02 "/>
<polygon class="st7" points="118.31,58.48 127.41,49.47 118.31,40.29 116.58,42.02 123.94,49.47 116.58,56.75 "/>
<path class="st7" d="M168.29,57.3l-5.8-5.73c0.81-1.21,1.25-2.66,1.24-4.11c-0.02-4.11-3.42-7.47-7.58-7.5
	c-1.96-0.01-3.93,0.78-5.34,2.17c-1.41,1.39-2.21,3.31-2.19,5.28c0.02,4.11,3.42,7.48,7.58,7.5c0.01,0,0.02,0,0.03,0
	c1.47,0,2.92-0.44,4.15-1.25l5.79,5.73L168.29,57.3z M161.48,47.46c0.01,1.37-0.55,2.72-1.53,3.69c-0.98,0.97-2.33,1.52-3.72,1.52
	c-0.01,0-0.01,0-0.02,0c-2.92-0.02-5.31-2.37-5.32-5.26c-0.01-1.37,0.55-2.72,1.53-3.69c0.98-0.97,2.34-1.53,3.74-1.52
	C159.08,42.22,161.46,44.58,161.48,47.46z"/>
<path class="st28" d="M469.63,49.38l-3.26,3.28c-0.39,0.39-0.39,1.02,0,1.4c0.39,0.39,1.01,0.39,1.4,0l3.26-3.28l3.26,3.28
	c0.39,0.39,1.01,0.39,1.4,0c0.39-0.39,0.39-1.02,0-1.4l-3.26-3.28l3.26-3.28c0.39-0.39,0.39-1.02,0-1.4c-0.39-0.39-1.01-0.39-1.4,0
	l-3.26,3.28l-3.26-3.28c-0.39-0.39-1.01-0.39-1.4,0c-0.39,0.39-0.39,1.02,0,1.4L469.63,49.38z M471.02,59.98
	c-5.82,0-10.54-4.74-10.54-10.59c0-5.85,4.72-10.59,10.54-10.59c5.82,0,10.54,4.74,10.54,10.59
	C481.56,55.23,476.84,59.98,471.02,59.98z"/>
<g>
	<path class="st17" d="M107.25,115.93c0-10.74-8.71-19.45-19.45-19.45c-10.74,0-19.45,8.71-19.45,19.45c0,0,0,0,0,0
		c0,4.47-1.34,7.39,19.45,44.7C108.68,123.15,107.23,118.23,107.25,115.93z"/>
	<path class="st3" d="M87.8,124.98c-4.75,0-8.59-3.85-8.59-8.59c0-4.75,3.85-8.59,8.59-8.59c4.75,0,8.59,3.85,8.59,8.59
		C96.4,121.14,92.55,124.98,87.8,124.98z"/>
</g>
<path class="st29" d="M356.37,201.78"/>
<g>
	<g>
		<g>
			<path class="st22" d="M243.89,315.46L236,329.12c-1.6,2.77,0.58,6.12,4,6.12h77.58c3.09,0,5.27-2.78,4.3-5.47l-4.92-13.67
				c-0.61-1.71-2.35-2.86-4.3-2.86h-64.78C246.21,313.24,244.68,314.09,243.89,315.46z"/>
			<g>
				<g>
					<path class="st7" d="M259.78,311.66c0,3.81-3.09,6.89-6.89,6.89c-3.81,0-6.89-3.09-6.89-6.89c0-3.81,3.09-6.89,6.89-6.89
						C256.69,304.77,259.78,307.85,259.78,311.66z"/>
					<circle class="st30" cx="252.88" cy="311.66" r="4.14"/>
					<path class="st31" d="M250.16,310.9l2.36-6.23c0.13-0.33,0.45-0.55,0.8-0.55h8.22c0.75,0,1.14,0.89,0.63,1.44l-7.4,7.99
						c-0.62,0.67-1.56,0.91-2.43,0.63l-0.74-0.24C250.35,313.52,249.69,312.14,250.16,310.9z"/>
					<circle class="st7" cx="252.88" cy="311.66" r="1.59"/>
				</g>
				<g>
					<path class="st7" d="M299.69,311.66c0,3.81,3.09,6.89,6.89,6.89c3.81,0,6.89-3.09,6.89-6.89c0-3.81-3.09-6.89-6.89-6.89
						C302.78,304.77,299.69,307.85,299.69,311.66z"/>
					<path class="st30" d="M302.44,311.66c0,2.29,1.86,4.14,4.14,4.14c2.29,0,4.14-1.86,4.14-4.14c0-2.29-1.86-4.14-4.14-4.14
						C304.3,307.51,302.44,309.37,302.44,311.66z"/>
					<path class="st31" d="M309.31,310.9l-2.36-6.23c-0.13-0.33-0.45-0.55-0.8-0.55h-8.22c-0.75,0-1.14,0.89-0.63,1.44l7.4,7.99
						c0.62,0.67,1.56,0.91,2.43,0.63l0.74-0.24C309.12,313.52,309.78,312.14,309.31,310.9z"/>
					<circle class="st7" cx="306.59" cy="311.66" r="1.59"/>
				</g>
				<g>
					<path class="st17" d="M234.86,247.63c-0.4,0-0.77-0.23-0.94-0.62c-2.34-5.41-6.23-14.22-6.92-15.32
						c-1.04-0.76-8.91-3.56-16.03-5.87c-0.42-0.14-0.71-0.53-0.71-0.97s0.29-0.83,0.71-0.97l12.66-4.1
						c0.19-0.06,0.39-0.07,0.58-0.01c1.21,0.33,11.9,3.29,14.19,5.43c1.83,1.7,7.21,12.93,8.27,15.16c0.24,0.51,0.03,1.12-0.48,1.36
						c-0.51,0.24-1.12,0.02-1.36-0.48c-2.39-5.03-6.63-13.43-7.82-14.54c-1.42-1.32-8.63-3.65-13.05-4.87l-9.39,3.04
						c6.54,2.17,13.3,4.59,14.02,5.56c0.85,1.13,6.15,13.35,7.2,15.79c0.22,0.52-0.01,1.12-0.53,1.34
						C235.13,247.6,234.99,247.63,234.86,247.63z"/>
				</g>
				<polygon class="st32" points="232.09,242.46 243.62,235.3 332.48,239.65 334.52,245.22 				"/>
				<path class="st17" d="M231.25,242.64L244.7,287c0.4,1.33,1.65,2.22,3.04,2.18l74.39-2.3c1.38-0.04,2.57-1,2.89-2.35l9.5-39.3
					L231.25,242.64z"/>
				<path class="st33" d="M251.25,261.19c4.81,10,15.44,12.02,25.56,11.52c21.73-1.08,40.72-9.56,53.45-27.59
					c0,0-79.11-1.98-79.13-1.98c-1.17-0.02-1.74,7.57-1.8,8.56C249.14,254.98,249.84,258.25,251.25,261.19z"/>
				<path class="st17" d="M321.94,311.46c-0.91-3.63-2.78-7.27-4.13-9.11c-0.7-0.95-1.86-2.05-4.56-2.05h-61.6
					c-0.97,0-2.71-0.16-3.44-1.24c-0.69-1.01-0.3-2.61,0.16-3.77c1.82-4.65,3.44-7.6,3.45-7.63l-2.41,0.2
					c-0.07,0.12-1.08,1.89-2.95,6.68c-0.92,2.35-0.9,4.26,0.06,5.66c0.95,1.39,2.73,2.13,5.13,2.13h3.3v1.38
					c0,0.86,0.69,1.55,1.55,1.55h1.18c0.86,0,1.55-0.7,1.55-1.55v-1.38h40.73v1.38c0,0.86,0.69,1.55,1.55,1.55h1.18
					c0.86,0,1.55-0.7,1.55-1.55v-1.38h9c1.86,0,2.48,0.63,2.91,1.22c1.28,1.74,3,5.18,3.8,8.39c0.18,0.72,0.13,1.27-0.15,1.64
					c-0.56,0.73-1.97,0.82-2.39,0.83c-14.27,0.32-45.06,0.14-61.59,0.05c-4.92-0.03-8.64-0.05-10.41-0.05
					c-2.51,0-4.37-0.72-5.26-2.02c-0.85-1.26-0.82-3.1,0.07-5.33c1.97-4.91,7.76-19.52,7.76-19.52l-1.9-0.75
					c0,0-5.79,14.61-7.75,19.51c-1.46,3.65-0.74,5.95,0.13,7.23c1.27,1.88,3.74,2.92,6.95,2.92c1.16,0,3.18,0.01,5.81,0.02v1.34
					c0,0.86,0.69,1.55,1.55,1.55h1.18c0.86,0,1.55-0.69,1.55-1.55v-1c0.12-0.12,0.18-0.19,0.3-0.31c9.42,0.05,23.47,0.13,36.46,0.13
					c3.53,0,6.97-0.01,10.23-0.02v1.2c0,0.86,0.69,1.55,1.55,1.55h1.18c0.86,0,1.55-0.69,1.55-1.55v-1.22
					c4.08-0.03,7.73-0.07,10.68-0.14c1.03-0.02,2.92-0.27,3.96-1.63C322.11,313.95,322.28,312.82,321.94,311.46z"/>
				<g>
					<path class="st3" d="M331.54,244.39l-9.22,38.02c-0.25,1.05-1.18,1.8-2.26,1.84l-34.74,1.07c2.69-2.91,5.37-5.84,8.02-8.79
						c0.2-0.22,0.26-0.49,0.14-0.61c-0.13-0.13-0.4-0.06-0.62,0.16c-2.86,2.95-5.69,5.93-8.51,8.93l-0.01,0.01
						c-0.1,0.11-0.17,0.23-0.22,0.34l-30.66,0.95c2.86-3.09,5.7-6.19,8.52-9.33c0.2-0.23,0.27-0.51,0.15-0.63
						c-0.13-0.13-0.41-0.05-0.64,0.18c-2.99,3.09-5.96,6.21-8.9,9.35l-0.01,0.01c-0.13,0.15-0.22,0.3-0.27,0.45l-2.77,0.09
						c-1.07,0.04-2.06-0.67-2.37-1.7l-6.12-20.18c1.58-1.72,3.14-3.45,4.68-5.21c0.11-0.13,0.1-0.32-0.02-0.45
						c-0.13-0.13-0.34-0.13-0.46,0c-1.52,1.53-3.02,3.08-4.5,4.65l-6.58-21.68l-0.98,0.3l13,42.87c0.44,1.44,1.77,2.43,3.28,2.43
						c0.04,0,0.07,0,0.11,0l70.51-2.18c1.54-0.05,2.86-1.12,3.22-2.62l9.22-38.02L331.54,244.39z"/>
					<path class="st3" d="M246.54,258.49c0.28-0.17,0.49-0.4,0.72-0.62c0.21-0.24,0.41-0.47,0.57-0.76
						c0.06-0.11,0.06-0.25-0.02-0.37c-0.11-0.17-0.34-0.23-0.51-0.12c-0.28,0.17-0.49,0.4-0.72,0.62c-0.2,0.24-0.41,0.47-0.57,0.76
						c-0.06,0.11-0.06,0.25,0.02,0.37C246.14,258.54,246.37,258.59,246.54,258.49z"/>
					<path class="st3" d="M248.44,256.45c0.12,0,0.18-0.06,0.25-0.12c0.05-0.07,0.1-0.14,0.1-0.26c0,0,0-0.01,0-0.01
						c-0.01-0.28-0.25-0.49-0.53-0.48c-0.12,0-0.18,0.06-0.25,0.12c-0.05,0.07-0.1,0.14-0.1,0.26c0,0,0,0.01,0,0.01
						C247.93,256.25,248.16,256.47,248.44,256.45z"/>
					<path class="st3" d="M256.94,247.32c2.07-2.11,4.12-4.24,6.15-6.4l0,0c0.17-0.18,0.16-0.48-0.03-0.65
						c-0.19-0.17-0.48-0.16-0.65,0.02c-2.01,2.17-3.99,4.37-5.95,6.58c-0.11,0.13-0.11,0.33,0.02,0.45
						C256.61,247.45,256.81,247.45,256.94,247.32z"/>
					<path class="st3" d="M255.87,248.51c0.12,0,0.18-0.06,0.25-0.12c0.05-0.07,0.1-0.14,0.1-0.26c0,0,0-0.01,0-0.01
						c-0.02-0.28-0.25-0.49-0.53-0.48c-0.12,0-0.18,0.06-0.25,0.12c-0.05,0.07-0.1,0.14-0.1,0.26c0,0,0,0.01,0,0.01
						C255.36,248.31,255.59,248.53,255.87,248.51z"/>
					<path class="st3" d="M254.74,249.73c0.12,0,0.18-0.06,0.25-0.12c0.05-0.07,0.1-0.14,0.1-0.26c0,0,0-0.01,0-0.01
						c-0.02-0.28-0.25-0.49-0.53-0.48c-0.12,0-0.18,0.06-0.25,0.12c-0.05,0.07-0.1,0.14-0.1,0.26c0,0,0,0.01,0,0.01
						C254.23,249.52,254.46,249.74,254.74,249.73z"/>
					<path class="st3" d="M253.61,250.94c0.12,0,0.18-0.06,0.25-0.12c0.05-0.07,0.1-0.14,0.1-0.26c0,0,0-0.01,0-0.01
						c-0.02-0.28-0.25-0.49-0.53-0.48c-0.12,0-0.18,0.06-0.25,0.12c-0.05,0.07-0.1,0.14-0.1,0.26c0,0,0,0.01,0,0.01
						C253.1,250.73,253.33,250.95,253.61,250.94z"/>
					<path class="st3" d="M249.74,255.09c0.53-0.45,1.01-0.95,1.49-1.45c0.46-0.51,0.93-1.02,1.34-1.59
						c0.09-0.13,0.09-0.32-0.02-0.45c-0.13-0.15-0.36-0.17-0.51-0.05c-0.53,0.45-1.01,0.95-1.49,1.45
						c-0.46,0.51-0.93,1.02-1.34,1.59c-0.09,0.13-0.09,0.31,0.02,0.45C249.36,255.2,249.59,255.22,249.74,255.09z"/>
					<path class="st3" d="M262.78,275.48c0.08,0.21,0.38,0.19,0.66-0.03c0.45-0.36,0.84-0.77,1.24-1.18
						c0.38-0.42,0.76-0.84,1.09-1.31c0.13-0.19,0.18-0.39,0.13-0.53c-0.08-0.21-0.38-0.19-0.66,0.03c-0.45,0.36-0.84,0.77-1.24,1.18
						c-0.38,0.42-0.76,0.84-1.09,1.31C262.78,275.14,262.73,275.34,262.78,275.48z"/>
					<path class="st3" d="M266.87,271.76c0.17-0.06,0.28-0.16,0.39-0.27c0.1-0.12,0.2-0.24,0.24-0.41c0,0,0-0.01,0-0.01
						c0.09-0.39-0.15-0.61-0.53-0.48c-0.17,0.05-0.28,0.16-0.39,0.27c-0.1,0.12-0.2,0.24-0.24,0.41c0,0,0,0.01,0,0.02
						C266.25,271.68,266.49,271.89,266.87,271.76z"/>
					<path class="st3" d="M282.27,255.23c3.71-3.86,7.39-7.75,11.06-11.66l0,0c0.31-0.33,0.41-0.75,0.22-0.92
						c-0.19-0.17-0.59-0.04-0.9,0.29c-3.64,3.93-7.26,7.87-10.86,11.84c-0.21,0.23-0.28,0.51-0.16,0.64
						C281.76,255.55,282.04,255.47,282.27,255.23z"/>
					<path class="st3" d="M280.31,257.38c0.17-0.06,0.28-0.16,0.39-0.27c0.1-0.12,0.2-0.24,0.24-0.41c0,0,0-0.01,0-0.02
						c0.09-0.39-0.15-0.6-0.53-0.48c-0.17,0.06-0.28,0.16-0.39,0.27c-0.1,0.12-0.2,0.24-0.24,0.41c0,0,0,0.01,0,0.01
						C279.69,257.29,279.93,257.5,280.31,257.38z"/>
					<path class="st3" d="M278.27,259.57c0.17-0.06,0.28-0.16,0.39-0.27c0.1-0.12,0.2-0.24,0.24-0.41c0,0,0-0.01,0-0.02
						c0.09-0.39-0.15-0.6-0.53-0.48c-0.17,0.06-0.28,0.16-0.39,0.27c-0.1,0.12-0.2,0.24-0.24,0.41c0,0,0,0.01,0,0.01
						C277.65,259.48,277.88,259.69,278.27,259.57z"/>
					<path class="st3" d="M276.23,261.76c0.17-0.05,0.28-0.16,0.39-0.27c0.1-0.12,0.2-0.24,0.24-0.41c0,0,0-0.01,0-0.02
						c0.09-0.39-0.15-0.6-0.53-0.48c-0.17,0.06-0.28,0.16-0.39,0.27c-0.1,0.12-0.2,0.24-0.24,0.41c0,0,0,0.01,0,0.01
						C275.6,261.67,275.84,261.89,276.23,261.76z"/>
					<path class="st3" d="M269.21,269.28c0.92-0.86,1.77-1.77,2.64-2.68c0.84-0.92,1.69-1.84,2.49-2.82
						c0.18-0.23,0.25-0.49,0.15-0.63c-0.12-0.17-0.42-0.11-0.68,0.14c-0.92,0.86-1.77,1.77-2.64,2.68
						c-0.84,0.92-1.69,1.84-2.49,2.82c-0.18,0.23-0.25,0.49-0.15,0.63C268.65,269.59,268.95,269.53,269.21,269.28z"/>
					<path class="st3" d="M294.74,275.06c0.43-0.34,0.8-0.73,1.18-1.12c0.36-0.4,0.73-0.8,1.03-1.26c0.12-0.18,0.17-0.37,0.11-0.51
						c-0.08-0.2-0.37-0.19-0.64,0.02c-0.43,0.34-0.81,0.73-1.18,1.12c-0.36,0.4-0.73,0.8-1.03,1.26c-0.12,0.18-0.17,0.38-0.11,0.51
						C294.18,275.28,294.46,275.28,294.74,275.06z"/>
					<path class="st3" d="M298.01,271.55c0.16-0.05,0.27-0.15,0.38-0.25c0.09-0.12,0.19-0.23,0.23-0.39c0,0,0-0.01,0-0.01
						c0.08-0.38-0.16-0.59-0.53-0.48c-0.16,0.05-0.27,0.15-0.38,0.25c-0.09,0.12-0.19,0.23-0.23,0.39c0,0,0,0.01,0,0.02
						C297.4,271.45,297.64,271.67,298.01,271.55z"/>
					<path class="st3" d="M312.71,255.76c3.54-3.69,7.06-7.4,10.56-11.13l0,0c0.3-0.32,0.38-0.72,0.2-0.89
						c-0.19-0.17-0.58-0.06-0.88,0.26c-3.48,3.75-6.93,7.52-10.36,11.31c-0.2,0.22-0.26,0.49-0.14,0.62
						C312.22,256.06,312.5,255.99,312.71,255.76z"/>
					<path class="st3" d="M310.85,257.81c0.16-0.05,0.27-0.15,0.38-0.25c0.09-0.12,0.19-0.23,0.23-0.39c0,0,0-0.01,0-0.02
						c0.08-0.38-0.16-0.59-0.53-0.48c-0.16,0.05-0.27,0.15-0.38,0.25c-0.09,0.12-0.19,0.23-0.23,0.39c0,0,0,0.01,0,0.01
						C310.23,257.71,310.47,257.93,310.85,257.81z"/>
					<path class="st3" d="M308.9,259.91c0.16-0.05,0.27-0.15,0.38-0.25c0.09-0.12,0.19-0.23,0.23-0.39c0,0,0-0.01,0-0.02
						c0.08-0.38-0.16-0.59-0.53-0.48c-0.16,0.05-0.27,0.15-0.38,0.25c-0.09,0.12-0.19,0.23-0.23,0.39c0,0,0,0.01,0,0.01
						C308.28,259.81,308.52,260.02,308.9,259.91z"/>
					<path class="st3" d="M306.94,262c0.16-0.05,0.27-0.15,0.38-0.25c0.09-0.12,0.19-0.23,0.23-0.39c0,0,0-0.01,0-0.02
						c0.08-0.38-0.16-0.59-0.53-0.48c-0.16,0.05-0.27,0.15-0.38,0.25c-0.09,0.12-0.19,0.23-0.23,0.39c0,0,0,0.01,0,0.01
						C306.33,261.9,306.57,262.11,306.94,262z"/>
					<path class="st3" d="M300.25,269.18c0.88-0.82,1.7-1.69,2.52-2.55c0.81-0.88,1.62-1.76,2.37-2.69
						c0.17-0.22,0.24-0.47,0.14-0.61c-0.12-0.17-0.42-0.11-0.66,0.12c-0.88,0.82-1.7,1.69-2.52,2.55c-0.81,0.88-1.62,1.76-2.37,2.69
						c-0.17,0.22-0.24,0.47-0.14,0.61C299.7,269.47,300,269.41,300.25,269.18z"/>
				</g>
				<polygon class="st33" points="258.26,314.49 261.89,301.67 300.29,301.67 302.39,314.49 				"/>
				<g>
					<circle class="st7" cx="248.28" cy="327.14" r="8.1"/>
					<path class="st30" d="M253.15,327.14c0,2.69-2.18,4.87-4.87,4.87c-2.69,0-4.87-2.18-4.87-4.87c0-2.69,2.18-4.87,4.87-4.87
						C250.97,322.28,253.15,324.46,253.15,327.14z"/>
					<path class="st31" d="M245.08,326.26l2.78-7.32c0.15-0.39,0.52-0.65,0.94-0.65h9.66c0.88,0,1.34,1.05,0.74,1.7l-8.69,9.38
						c-0.72,0.78-1.84,1.07-2.85,0.74l-0.87-0.28C245.3,329.34,244.53,327.71,245.08,326.26z"/>
					<path class="st7" d="M250.14,327.14c0,1.03-0.83,1.86-1.86,1.86c-1.03,0-1.86-0.83-1.86-1.86c0-1.03,0.83-1.86,1.86-1.86
						C249.31,325.28,250.14,326.11,250.14,327.14z"/>
				</g>
				<g>
					<circle class="st7" cx="310.14" cy="327.14" r="8.1"/>
					<path class="st30" d="M305.27,327.14c0,2.69,2.18,4.87,4.87,4.87c2.69,0,4.87-2.18,4.87-4.87c0-2.69-2.18-4.87-4.87-4.87
						C307.45,322.28,305.27,324.46,305.27,327.14z"/>
					<path class="st31" d="M313.34,326.26l-2.78-7.32c-0.15-0.39-0.52-0.65-0.94-0.65h-9.66c-0.88,0-1.34,1.05-0.74,1.7l8.69,9.38
						c0.72,0.78,1.84,1.07,2.85,0.74l0.87-0.28C313.12,329.34,313.89,327.71,313.34,326.26z"/>
					<path class="st7" d="M308.27,327.14c0,1.03,0.83,1.86,1.86,1.86s1.86-0.83,1.86-1.86c0-1.03-0.83-1.86-1.86-1.86
						S308.27,326.11,308.27,327.14z"/>
				</g>
			</g>
			<g>
				
					<ellipse transform="matrix(0.228 -0.9737 0.9737 0.228 20.62 509.2299)" class="st4" cx="331.42" cy="241.61" rx="18.32" ry="18.32"/>
				<g>
					<path class="st7" d="M334.82,231.85v16.16h3.07c0.6,0,0.86,0.43,0.86,1.44v0.49c0,1-0.26,1.44-0.86,1.44h-11.14
						c-0.6,0-0.86-0.43-0.86-1.44v-0.49c0-1.01,0.26-1.44,0.86-1.44h3.82v-12.89l-3.9,0.57c-0.75,0-0.92-1.61-0.92-2.41
						c0-0.43,0.26-0.72,0.75-0.8l7.15-1.32C334.11,231.16,334.82,231.51,334.82,231.85z"/>
				</g>
			</g>
		</g>
		<g>
			<polygon class="st5" points="258.02,227.82 258.02,242.25 292.11,243.14 292.11,226.34 			"/>
			<polygon class="st34" points="292.11,226.34 292.11,243.14 308.35,243.66 308.35,229.28 			"/>
			<polygon class="st4" points="257.03,225.09 292.9,223.62 292.9,228.32 257.03,229.81 			"/>
			<polygon class="st5" points="292.9,228.32 309.53,231.16 309.53,226.72 292.9,223.62 			"/>
		</g>
	</g>
	<g>
		<ellipse class="st22" cx="179.24" cy="327.01" rx="49.29" ry="2.84"/>
	</g>
	<g>
		<g>
			<g>
				<path class="st29" d="M203.05,294.47c0.8,7.92,7.46,19.52,10.04,25.98c0.76,1.9,4.37,0.84,3.96-1.17
					c-1.39-6.85-2.34-20.72-2.97-27.79C213.32,283.16,202.29,286.93,203.05,294.47z"/>
				<g>
					<defs>
						<path id="SVGID_2_" d="M213.19,320.42c0,0-0.77,2.18,0.54,5.11c-0.24,0.11-0.06,1.08,0.37,1.29c0.51,0.24,4.16,0.18,4.9-0.4
							c0.16-0.28-0.02-0.66-0.02-0.66s0.91,0.35,3.51-0.14c2.6-0.49,3.99-1.24,5-1.88c0.31-0.19,0.09-0.89-0.25-0.78
							c0,0-0.22-1.8-1.73-1.71c-3.09,0.2-5.31-1.06-6.89-2.01c-0.78-0.47-1.57-0.87-2.06-0.89
							C215.32,318.29,213.7,319.02,213.19,320.42z"/>
					</defs>
					<use xlink:href="#SVGID_2_"  style="overflow:visible;fill:#ED0C37;"/>
					<clipPath id="SVGID_3_">
						<use xlink:href="#SVGID_2_"  style="overflow:visible;"/>
					</clipPath>
					<path class="st35" d="M213.73,325.53c2.19,0.25,5.26-0.08,5.26-0.08s5.92-0.1,8.25-2.48c2.33-2.38,4.35,0.16,4.35,0.16
						l-9.69,7.72l-6.33-0.49l-2.83-2.39C212.74,327.96,212.5,325.39,213.73,325.53z"/>
					<path class="st36" d="M212.72,320.59c0,0,0.85,1.48,2.59,1.11c1.74-0.37,1.92-1.44,1.53-3.3S210.89,317.77,212.72,320.59z"/>
				</g>
			</g>
			<g>
				<path class="st37" d="M177.13,237.77c0,0,11.39,20.49,15.15,28.86c3.76,8.37,8.52,29.05,8.52,29.05s9.36,1.97,14.27-2.42
					c0,0-1.57-21.82-4.24-31.62c-2.67-9.8-12.83-33.85-12.83-33.85C193.92,219.16,173.05,229.14,177.13,237.77z"/>
				<path class="st30" d="M186.44,253.8c0.13-0.13,0.91-3.74,3.22-7.77c2.01-3.51,6.86-6.27,7.39-5.84
					c0.91,0.74-6.32,6.11-7.72,9.99c0,0,8.05-5.86,8.61-5.08C198.46,245.8,189.61,250.64,186.44,253.8z"/>
			</g>
		</g>
		<g>
			<path class="st15" d="M185.24,187.27c1.88,8.66,4.8,20.2,11.22,25.83c6.43,5.63,20.38,8.76,21.05,8.76
				c1.55,0.36,3.22-7.84,1.99-8.79c-1.23-0.95-12.21-5.38-14.16-7.26c-3.48-3.36-2-23.82-5.94-28.28
				C195.46,173.07,183.05,177.18,185.24,187.27z"/>
			<path class="st38" d="M220.32,214.55c0,0,4.89,4.06,5.18,5.17s0.17,2.93-0.23,3.39c-0.4,0.46-3.39,1.96-4.53,1.18
				s-2.72-2.57-2.72-2.57l0.54-2c0,0-0.37,1.37-3.33-0.49C212.28,217.37,217.51,211.74,220.32,214.55z"/>
		</g>
		<g>
			<g>
				<path class="st29" d="M152.15,288.59c-5.9,5.35-11.27,17.59-14.94,23.51c-1.08,1.74,1.92,4.01,3.29,2.49
					c4.68-5.18,15.27-14.19,20.59-18.9C167.35,290.14,157.76,283.5,152.15,288.59z"/>
				<g>
					<defs>
						<path id="SVGID_4_" d="M137.87,311.5c0,0-2.24,0.54-3.99,3.24c-0.22-0.14-0.94,0.54-0.88,1.01c0.07,0.56,2.11,3.59,3,3.89
							c0.32-0.01,0.54-0.38,0.54-0.38s0.21,0.96,2.04,2.87c1.83,1.91,3.22,2.67,4.31,3.17c0.33,0.15,0.79-0.4,0.51-0.63
							c0,0,1.39-1.17,0.49-2.38c-1.85-2.48-2.01-5.03-2.07-6.87c-0.03-0.91-0.13-1.79-0.37-2.21
							C140.82,312.13,139.33,311.17,137.87,311.5z"/>
					</defs>
					<use xlink:href="#SVGID_4_"  style="overflow:visible;fill:#ED0C37;"/>
					<clipPath id="SVGID_5_">
						<use xlink:href="#SVGID_4_"  style="overflow:visible;"/>
					</clipPath>
					<path class="st39" d="M133.88,314.74c0.99,1.98,2.93,4.36,2.93,4.36s3.32,4.91,6.58,5.57c3.26,0.66,2.24,3.73,2.24,3.73
						l-11.75-3.92l-3.04-5.58l0.46-3.67C131.31,315.24,133.33,313.64,133.88,314.74z"/>
					<path class="st40" d="M137.47,311.21c0,0-0.78,1.52,0.48,2.78c1.26,1.26,2.25,0.82,3.6-0.52
						C142.9,312.11,138.84,308.13,137.47,311.21z"/>
				</g>
			</g>
			<g>
				<path class="st7" d="M165.07,230.08c0,0,1.58,30.04-1.79,37.91c-3.37,7.87-12.13,20.67-12.13,20.67s2.4,7.46,11.29,8.52
					c0,0,13.4-9.44,18.65-23.72c5.26-14.29,9.66-30.02,7.53-41.67C187.42,225.25,166.76,220.51,165.07,230.08z"/>
				<path class="st41" d="M168.98,229.81c0,0,0.19,25.01-0.98,34.69c-1.13,9.39-15.57,26.68-15.57,26.68"/>
			</g>
		</g>
		<g>
			<g>
				<path class="st3" d="M198.69,178.21c2.31,4.6-1.81,22.08-1.81,29.72c0,6.21,1.02,16.59,1.94,20.51
					c0.25,1.04-0.22,2.12-1.15,2.66c-3.57,2.1-8.33,3.2-11.26,3.49c-11.31,1.09-16.77-0.89-19.34-1.87c-1.39-0.53-2.22-1.94-2-3.4
					c0.57-3.82,2.18-13.16,0.8-21.75c-1.8-11.24-4.75-26.54,0.53-31.26c5.27-4.72,15.15-7.66,15.15-7.66
					S195.84,172.53,198.69,178.21z"/>
				<g>
					<path class="st30" d="M183.94,163.87c0,0-2.54-0.42-6.01-4.75c-2.28-2.83-5.45-15.65,4.6-17.59
						c10.05-1.94,13.02,4.86,13.47,9.3c0.46,4.44-4.53,8.11-6.79,9.71C186.96,162.14,183.94,163.87,183.94,163.87z"/>
					<path class="st29" d="M181.49,158.7c0,0-0.31,3.88-1.45,6.91c-1.15,3.03-2.38,3.96-3.82,5.25c-1.45,1.29,5.78,8.96,12.21,10.91
						c0,0,4.66-5.68,2.53-8.85c-2.14-3.17-3.83-3.45-3.07-7.67c0.67-3.69,1.07-5.73,1.07-5.73L181.49,158.7z"/>
					<g>
						<g>
							<g>
								<path class="st42" d="M181.49,158.7c0,0-0.32,2.87,0.83,4.1c1.16,1.23,3.23,4.2,7.95,3.86c6.31-0.46,3.86-10.47,3.86-10.47
									s0.66-3.85,0-7.01c-0.66-3.16-6.9-4.82-11.99-3.27c0,0-1.46,1.39-0.9,7.6c0,0-0.94-1.13-2.41-0.32
									c-1.12,0.61-1.24,2.05-0.86,3.42C178.43,158.23,180.13,159.64,181.49,158.7z"/>
							</g>
							<path class="st43" d="M180.97,158.1l-0.55-1.48l0.95-0.39c0,0-0.61-2.76-2.15-1.74C177.94,155.33,179.39,158.66,180.97,158.1
								z"/>
						</g>
						<path class="st30" d="M181.64,155.9c0,0-0.62,3.88-0.53,5.61c0.09,1.73,1.8,7.12,9.7,6.64c7.84-0.48,5.03-8.98,3.71-9.56
							c0.05,0.57-0.23,1.48-0.78,1.88c-0.32-0.79-1.24-1.36-2.53-1.09c-1.12-0.64-2.41-0.24-3.77,0.57l-0.98,0.68
							c-2.44-0.6-3.71-2.21-4.01-4.63L181.64,155.9z"/>
						<g>
							<path class="st3" d="M188.43,160.78c0,0,4.15,0,4.24,0.28c0.1,0.28-0.49,0.85-2.12,0.85
								C188.92,161.91,188.43,160.78,188.43,160.78z"/>
							<path class="st43" d="M188.31,160.71c0.22-0.12,0.2-0.04,0.26-0.06l0.15,0.01l0.29,0.01l0.58,0.03l1.16,0.04
								c0.39,0.02,0.77,0.04,1.16,0.08c0.19,0.02,0.39,0.04,0.58,0.09c0.05,0.02,0.1,0.03,0.15,0.05c0.08,0.05,0.11,0.12,0.1,0.18
								c-0.01,0.13-0.08,0.22-0.15,0.3c-0.65,0.53-1.49,0.56-2.26,0.56c-0.4-0.02-0.8-0.11-1.15-0.31c-0.18-0.09-0.35-0.21-0.5-0.35
								c-0.07-0.07-0.14-0.15-0.21-0.23l-0.09-0.13l-0.04-0.07l-0.02-0.04l-0.01-0.02C188.31,160.88,188.27,160.75,188.31,160.71z
								 M188.54,160.86c0.05-0.03,0.01-0.15,0.02-0.12l0.01,0.01l0.01,0.03l0.03,0.06l0.07,0.11c0.05,0.07,0.11,0.14,0.17,0.21
								c0.12,0.13,0.27,0.25,0.43,0.34c0.32,0.19,0.69,0.28,1.06,0.31c0.74,0.02,1.58-0.01,2.16-0.47c0.37-0.37-0.28-0.31-0.61-0.37
								c-0.38-0.03-0.77-0.05-1.15-0.06l-1.16-0.02l-0.58,0.01l-0.29,0.01l-0.14,0C188.54,160.89,188.42,160.98,188.54,160.86z"/>
						</g>
						<g>
							<path class="st30" d="M188.97,155.66c-0.03,0.35-0.49,0.38-1.05,0.33c-0.56-0.05-1.01-0.15-0.98-0.5
								c0.03-0.35,0.51-0.6,1.07-0.55C188.57,154.99,189,155.31,188.97,155.66z"/>
							<path class="st30" d="M185.26,153.99c-0.02,0.05,1.6-0.51,2.11-0.5c0.51,0.01,2.44,0.31,2.6,0.13
								c0.16-0.19,0.29-0.83,0.29-0.83s-2.63-0.26-3.17-0.12C186.54,152.8,185.4,153.54,185.26,153.99z"/>
						</g>
						<g>
							<path class="st30" d="M194.11,156.09c-0.03,0.35-0.49,0.38-1.05,0.33c-0.56-0.05-1.01-0.15-0.98-0.5
								c0.03-0.35,0.51-0.6,1.07-0.55C193.71,155.42,194.14,155.74,194.11,156.09z"/>
							<path class="st30" d="M194.82,154.79c0,0.05-0.69-0.83-1.04-0.9c-0.35-0.07-2.02,0.08-2.1-0.13
								c-0.08-0.21-0.08-0.87-0.08-0.87s2.23,0.17,2.58,0.38C194.53,153.49,194.79,154.33,194.82,154.79z"/>
						</g>
						<g>
							<path class="st44" d="M191.22,159.08c0,0-1.3-0.04-1.27-0.4c0.03-0.36,2.74-0.75,2.89-0.49
								C193,158.45,191.8,158.92,191.22,159.08z"/>
							<path class="st43" d="M191.44,153.69c0,0-0.38,1.62-0.18,2.21c0.19,0.58,1.38,1.9,1.41,2.18c0.03,0.28-1.35,0.96-1.45,1
								c-0.1,0.04,1.96-0.27,1.9-0.91c-0.06-0.64-1.59-2.24-1.64-2.55C191.42,155.3,191.44,153.69,191.44,153.69z"/>
						</g>
						<path class="st30" d="M182.2,156.38c0.4-0.27,1.06-2.62,0.36-4.87c-0.63-2.02,0.96-3.51,2.09-3.64
							c1.29-0.14,5.46,1.04,7.11,0.84c3.61-0.44,6.42-1.51,6.41-2.18c-0.01-0.67-2.65,0.02-2.65,0.02s4.03-1.03,3.67-4.4
							c0,0-3.03,0.22-5.74-0.7c-2.71-0.93-9.18-2-12.63,0.56c-2.26,1.67-3.86,7.13-0.87,9.91
							C181.3,153.18,181.43,156.9,182.2,156.38z"/>
					</g>
				</g>
				<path class="st45" d="M191.6,178.29c0,0-1.72,34.21-1.34,37.43c0.38,3.22-0.25,15.58,7.56,17.96c0,0-3.49-17.85-3-28.57
					C195.32,194.39,191.6,178.29,191.6,178.29z"/>
			</g>
			<path class="st17" d="M189.11,170.55c0,0,3.36,10.71,3.17,24.68c-0.19,13.96-0.75,42.61,9.58,41.94c0,0-4.36-17.6-4.09-23.99
				s3.73-29.89,2.46-33.91C198.38,173.43,189.11,170.55,189.11,170.55z"/>
			<g>
				<path class="st17" d="M177.24,170.04c0,0,6.97,10.9,9.2,29.38c1.06,8.81-0.13,22.77-1.46,31.68
					c-1.53,10.26-21.62,10.25-22.91,7.56c-1.29-2.69,4.46-19.74,2.67-29.42c-1.79-9.69-2.85-25.5-0.71-30.7
					C166.18,173.34,177.24,170.04,177.24,170.04z"/>
				<path class="st46" d="M167.17,188.56c0,0,3.42,16.49,2.98,25.22c-0.44,8.73-3.22,26.36-3.22,26.36"/>
				<path class="st15" d="M164.76,179.87c-0.43,1.04-0.72,2.53-0.91,4.31c1.88,14.38,9.97,30.5,22.39,36.28
					c0.41-4.67,0.66-9.6,0.59-14.03c-8.32-8.29-14.69-19.07-19.56-29.69C166.14,177.68,165.23,178.73,164.76,179.87z"/>
			</g>
		</g>
		<g>
			<path class="st29" d="M213.42,217.42c0,0,6.19,1.45,6.95,2.31c0.75,0.86,2.02,3.8,1.87,4.4c-0.15,0.59-3.43,1.89-4.8,1.7
				c-1.37-0.19-2.86-0.96-2.86-0.96c0.21-0.73,0.15-1.39-0.61-1.62c-0.8-0.25-1.66,0.18-3.06,0.81
				C207.71,225.48,209.64,216.16,213.42,217.42z"/>
			<path class="st33" d="M163.76,187.44c1.67,9.23,13.47,22.99,18.52,27.33c4.43,3.8,26.29,10.24,27.25,10.3
				c2.24,0.48,5.09-7.59,3.35-8.63c-1.74-1.04-21.23-10.01-23.34-12.35c-2.11-2.35-9.85-23.19-15.34-27.95
				C168.7,171.38,161.88,177.03,163.76,187.44z"/>
		</g>
	</g>
</g>
<g>
	<g>
		<path class="st47" d="M519.4,172.6c8.96-12.91,18.2-10.11,21.6-4.67c3.4,5.44,0.95,13.53-6.13,20.21
			c-5.07,5.08-15.23,8.63-23.39,10.57c-5.71-6.14-12.19-14.73-13.58-21.77c-2.17-9.49,0.28-17.57,6.13-20.21
			C509.88,154.09,519.12,156.89,519.4,172.6z"/>
	</g>
	<g class="st48">
		<path class="st49" d="M541,167.94c-2.9-4.65-10.06-7.36-17.67-0.02c6.48-5.11,15.77-5.21,16.58,4.14
			c0.85,9.81-7.01,16.52-16.07,14.81c-11.89-2.25-8.97-12.22-14.61-17.1c-4.42-3.71-9.66,1.9-9.89,6.5
			c-0.11,2.09,0.12,4.18,0.47,6.16c2.68,5.68,7.4,11.67,11.68,16.28c8.16-1.94,18.31-5.48,23.39-10.57
			C541.94,181.46,544.4,173.38,541,167.94z"/>
	</g>
</g>
<g>
	<ellipse class="st22" cx="409.79" cy="326.02" rx="49.29" ry="2.84"/>
	<g>
		<g>
			<g>
				<g>
					<g>
						<g>
							<defs>
								<path id="SVGID_6_" d="M418.87,314.92c0,0,2.05,1.79,2.39,2.3c0.34,0.5,1.66,4.22,1.66,4.22c-0.28,0.54-1.2,1.32-2.06,1.42
									l-1.66-2.13c0,0-0.85,3.73-1.7,4.94c-1.04,1.46-6.97,3.15-7.86,2.71c0,0-1.09-2.17,0.77-3.37c3.43-2.2,3.52-6.82,3.52-6.82
									C413.41,315.46,416.39,313.39,418.87,314.92z"/>
							</defs>
							<use xlink:href="#SVGID_6_"  style="overflow:visible;fill:#FD6141;"/>
							<clipPath id="SVGID_7_">
								<use xlink:href="#SVGID_6_"  style="overflow:visible;"/>
							</clipPath>
							<path class="st50" d="M408.93,328.05c0.11-0.05,7.59-1.06,8.48-3.27c0.69-1.73,1.15-4.65,1.55-4.99
								c0.4-0.34,2.29-2.57,2.29-2.57l3,5.22l-11.28,9.49L408.93,328.05z"/>
						</g>
						<path class="st51" d="M412.53,323.06l1.02,0.22c0,0,0.73-1,0.66-1.89l-1-0.35c-0.18-0.06-0.38,0.03-0.45,0.21l-0.5,1.35
							C412.2,322.8,412.32,323.02,412.53,323.06z"/>
					</g>
					<path class="st29" d="M405.71,211.59c-0.02-0.36-9.51,41.87-9.17,53.22c0.21,7.07,13.43,39.62,17.38,53.38
						c0.76,2.64,4.86-0.46,4.54-3.2c-1.55-13.17-1.45-20.09-7.26-48.71c-0.91-4.46,15.09-44.4,13.82-53.75
						C423.75,203.17,410.7,198.08,405.71,211.59z"/>
					<path class="st52" d="M425.02,212.53c-1.27-9.36-14.32-14.45-19.31-0.94c-0.02-0.34-8.61,37.86-9.15,51.35
						c4.26-3.24,9.93-1.53,14.84,1.05C413.28,254.24,426.16,220.97,425.02,212.53z"/>
				</g>
				<g>
					<g>
						<g>
							<defs>
								<path id="SVGID_8_" d="M432.49,317.66c0,0,1.28,2.4,1.42,3c0.14,0.59,0.05,4.54,0.05,4.54c-0.45,0.4-1.59,0.81-2.43,0.6
									l-0.79-2.58c0,0-1.22,2.52-2.45,3.35c-1.49,1-6.79,2.23-7.68,1.79c0,0-1.22-2.36,0.74-3.37c4.92-2.53,5.36-6.01,5.36-6.01
									C427.2,316.24,430.72,315.36,432.49,317.66z"/>
							</defs>
							<use xlink:href="#SVGID_8_"  style="overflow:visible;fill:#FD6141;"/>
							<clipPath id="SVGID_9_">
								<use xlink:href="#SVGID_8_"  style="overflow:visible;"/>
							</clipPath>
							<path class="st53" d="M420,328.11c0.12-0.01,6.17-0.59,7.63-1.75c1.46-1.16,2.73-3.93,3.23-4.11
								c0.5-0.18,3.05-1.59,3.05-1.59l0.95,5.94l-13.91,4.86L420,328.11z"/>
						</g>
						<path class="st51" d="M423.91,323.39l0.88,0.57c0,0,1.03-0.67,1.29-1.54l-0.81-0.68c-0.15-0.12-0.37-0.11-0.49,0.04
							l-0.94,1.09C423.7,323.02,423.73,323.27,423.91,323.39z"/>
					</g>
					<path class="st29" d="M415.07,214.31c-0.07,3.68,0.49,42.88,3.89,53.61c2.12,6.69,6.56,38.78,8.06,49.75
						c0.55,4,4.89,4,5.21,0.18c1.17-14.2,5.76-33.95,0.55-51.31c-1.3-4.34,4.73-49.09,0.99-57.62
						C430.03,200.4,415.34,200.72,415.07,214.31z"/>
					<path class="st52" d="M432.59,263.64c0.12-11.07,4.5-47.15,1.18-54.71c-3.74-8.52-18.42-8.2-18.7,5.39
						c-0.07,3.38,0.41,36.86,3.13,50.53C422.44,262.45,427.8,262.25,432.59,263.64z"/>
				</g>
				<g>
					<path class="st17" d="M406.13,207l-0.42,3.85c0,0-6.9,17.48-9.87,45.85c7.35-2.04,21.24,4.75,41.84,1.86
						c0,0,8.15-36.34-6.03-52.5C417.48,189.9,406.87,198.44,406.13,207z"/>
					<path class="st15" d="M406.15,210.7c0,0-0.55,5.44,8.87,6.4c9.41,0.96,18.75-5.84,18.52-7.84
						C433.3,207.26,406.15,210.7,406.15,210.7z"/>
					<path class="st54" d="M429.39,208.01c0,0,10.78,17.93,4.15,49.94"/>
				</g>
			</g>
			<g>
				<g>
					<path class="st29" d="M367.81,196.74c-0.07-0.01-3.98-0.24-4.65-0.05c-0.63,0.17-2.22,0.94-2.69,1.18
						c-1.08,0.54-0.03,1.32,0.79,1.25c1.16-0.1,1.58-0.31,2.07-0.24c0.27,0.04,0.49,0.11,0.7,0.18c-0.43,0.36-2.2,1.61-3.57,2.14
						c-0.77,0.3-1.46,0.5-2.57,0.85c-0.49,0.16-0.41,0.81,0.15,0.92c0.4,0.07,1.77,0.08,2.97-0.38c0.48-0.18,0.96-0.38,1.4-0.58
						c0.01,0.04-1.02,0.65-1.52,0.87c-0.73,0.33-1.46,0.47-2.52,0.86c-0.49,0.18-0.36,0.75,0.21,0.83c0.15,0.02,0.44,0.05,0.81,0.04
						c-0.2,0.26-0.06,0.66,0.39,0.72c0.21,0.03,0.65-0.01,1.2-0.1c0.07,0.13,0.21,0.27,0.43,0.28c3.97,0.01,6.35-2.16,8.52-2.66
						C373.4,199.33,370.4,197.23,367.81,196.74z"/>
					<path class="st37" d="M414.04,168.42c-2.7-1.53-7.31-2.04-10.94,3.14s-5.23,17.35-9.09,21.47c-2.3,2.46-23.15,3.17-24.64,3.91
						c-0.97,0.48-0.39,5.13-0.07,5.99c0.66,1.8,23.24,2.77,29.38,0.35C404.82,200.85,419.83,171.71,414.04,168.42z"/>
				</g>
				<path class="st30" d="M405.3,145.36c0.17-1.89,0.16-5.03,2.41-7.75c2.25-2.72,11.03-5.45,15.62-2.27
					c5.65,3.91,3.81,7.58,10.85,10.42c7.05,2.84,4.92,6,2.9,9.22c-2.01,3.22-1.31,3.75,1.95,7.13c3.26,3.38,7.58,11.79,0,16.58
					c-7.58,4.8-23.99,1.66-30.57-4.68c-6.58-6.34,1.18-10.51-0.64-14.29c-1.83-3.78-3.97-2.94-3.97-6.96
					C403.87,149.7,405.05,148.28,405.3,145.36z"/>
				<path class="st7" d="M419.53,163.92c0,0-14.95,2.49-15.45,7.06c-0.21,1.91,2.4,5.77,1.72,7.73c-0.98,2.86-2.55,4.52,0.34,11.32
					c2.34,5.49-1.67,16.87-1.55,18.22c0.46,5.06,8.48,5.99,11.77,5.91c4.69-0.11,18.19-3.13,18.19-6.09c0-2.56-6.25-8.07-6.86-12.46
					s10.83-22,8.56-25.84C431.86,162.34,419.53,163.92,419.53,163.92z"/>
				<g>
					<path class="st29" d="M433.87,211.07c-0.07,0.01-3.86,0.99-4.45,1.37c-0.54,0.35-1.83,1.58-2.2,1.94
						c-0.86,0.85,0.38,1.26,1.13,0.94c1.07-0.45,1.41-0.78,1.9-0.86c0.27-0.04,0.5-0.05,0.72-0.04c-0.3,0.48-1.61,2.21-2.74,3.12
						c-0.64,0.52-1.24,0.92-2.19,1.6c-0.42,0.3-0.15,0.9,0.42,0.83c0.4-0.05,1.71-0.46,2.71-1.27c0.4-0.32,0.8-0.66,1.15-0.98
						c0.02,0.04-0.78,0.93-1.18,1.3c-0.59,0.54-1.25,0.89-2.14,1.59c-0.41,0.32-0.11,0.82,0.46,0.72c0.15-0.03,0.44-0.09,0.78-0.21
						c-0.11,0.31,0.15,0.65,0.59,0.57c0.21-0.04,0.62-0.21,1.12-0.46c0.1,0.11,0.28,0.18,0.49,0.13c2.36-0.54,6.39-3.92,7.3-5.14
						C439.99,211.83,436.49,210.75,433.87,211.07z"/>
					<path class="st7" d="M430.61,166.09c-2.42,1.95-4.58,6.06-1.09,11.33c3.48,5.28,13.4,10.77,15.82,15.86
						c1.44,3.04-11.96,16.07-11.98,17.73c-0.03,1.66,2.52,5.71,3.5,6.18c1.73,0.84,20.55-17.43,20.55-24.04
						C457.4,186.56,435.79,161.9,430.61,166.09z"/>
				</g>
				<path class="st29" d="M421.81,152.39c0,0,0.31,3.88,1.45,6.91c1.15,3.03,2.38,3.96,3.82,5.25c1.45,1.29-5.78,8.96-12.21,10.91
					c0,0-4.66-5.68-2.53-8.85c2.14-3.17,3.83-3.45,3.07-7.67c-0.67-3.69-1.07-5.73-1.07-5.73L421.81,152.39z"/>
				<g>
					<g>
						<path class="st3" d="M411.87,154.36c0,1.82-0.75,3.29-1.66,3.29s-1.66-1.48-1.66-3.29c0-1.23,0.35-2.29,0.85-2.86
							c0.16-0.2-0.04-0.36-0.2-0.15c-0.54,0.62-0.9,1.72-0.9,3.01c0,1.99,0.84,3.54,1.91,3.54c1.07,0,1.91-1.56,1.91-3.54
							c0-1.04-0.16-1.83-0.53-2.48c-0.04,0.05-0.14,0.13-0.19,0.18C411.7,152.66,411.87,153.44,411.87,154.36z"/>
					</g>
					<g>
						<path class="st42" d="M421.81,152.39c0,0-1.04,7.9-8.46,7.34c-3.73-0.28-5.63-7.93-4.18-9.85c0,0-0.66-3.85,0-7.01
							c0.66-3.16,6.9-4.82,11.99-3.27c0,0,1.46,1.39,0.9,7.6c0,0,0.94-1.13,2.41-0.32c1.12,0.61,1.24,2.05,0.86,3.42
							C424.87,151.92,423.17,153.33,421.81,152.39z"/>
						<path class="st43" d="M422.33,151.79l0.55-1.48l-0.95-0.39c0,0,0.61-2.76,2.15-1.74
							C425.36,149.01,423.91,152.35,422.33,151.79z"/>
						<g>
							<path class="st3" d="M424.7,154.36c0,1.82-0.75,3.29-1.66,3.29s-1.66-1.48-1.66-3.29c0-1.23,0.35-2.29,0.85-2.86
								c0.16-0.2-0.04-0.36-0.2-0.15c-0.54,0.62-0.9,1.72-0.9,3.01c0,1.99,0.84,3.54,1.91,3.54s1.91-1.56,1.91-3.54
								c0-1.04-0.16-1.83-0.53-2.48c-0.04,0.05-0.14,0.13-0.19,0.18C424.53,152.66,424.7,153.44,424.7,154.36z"/>
						</g>
					</g>
					<g>
						<g>
							<path class="st17" d="M411.39,154.8c0,0,0.5-1.23,4.4-0.83C415.34,156.03,411.7,157.05,411.39,154.8z"/>
							<g>
								<path class="st43" d="M411.39,154.8c0,0,2.35,0.01,4.4-0.83"/>
								<path class="st43" d="M411.39,154.8c1.5-0.2,2.94-0.44,4.4-0.83c-0.66,0.38-1.4,0.58-2.14,0.73
									C412.9,154.82,412.14,154.89,411.39,154.8z"/>
							</g>
						</g>
						<g>
							<path class="st30" d="M409.19,149.78c0.03,0.35,0.49,0.38,1.05,0.33c0.56-0.05,1.01-0.15,0.98-0.5s-0.51-0.6-1.07-0.55
								C409.59,149.11,409.16,149.43,409.19,149.78z"/>
							<path class="st30" d="M408.03,148.32c-0.02,0.05,1.3-1.12,1.65-1.1c0.35,0.02,1.67,0.51,1.8,0.33
								c0.13-0.18,0.26-0.58,0.26-0.58s-1.85-0.35-2.24-0.23C409.11,146.86,408.17,147.88,408.03,148.32z"/>
						</g>
						<g>
							<path class="st30" d="M414.33,149.35c0.03,0.35,0.49,0.38,1.05,0.33c0.56-0.05,1.01-0.15,0.98-0.5
								c-0.03-0.35-0.51-0.6-1.07-0.55C414.73,148.68,414.3,149,414.33,149.35z"/>
							<path class="st30" d="M417.66,147.12c0.03,0.05-1.74-0.68-2.18-0.57c-0.44,0.11-1.86,0.83-2.04,0.68s-0.4-0.51-0.4-0.51
								s2.07-0.7,2.57-0.68C416.1,146.06,417.42,146.72,417.66,147.12z"/>
						</g>
						<g>
							<path class="st44" d="M412.08,152.77c0,0,1.3-0.04,1.27-0.4c-0.03-0.35-2.74-0.74-2.89-0.49
								C410.3,152.14,411.49,152.61,412.08,152.77z"/>
							<path class="st43" d="M411.85,147.38c0,0,0.38,1.62,0.18,2.21c-0.19,0.58-1.38,1.9-1.41,2.18c-0.03,0.28,1.35,0.96,1.45,1
								c0.1,0.04-1.96-0.27-1.9-0.91c0.06-0.64,1.59-2.24,1.64-2.55C411.88,148.99,411.85,147.38,411.85,147.38z"/>
						</g>
					</g>
				</g>
				<path class="st30" d="M419.53,140.17c-6.18,0.65-8.93,6.48-13.46,6.48c-2.8-4.87,5.76-17.23,15.87-7.64
					c4.63,4.4,0.45,7.77,0.45,7.77l-1.03,3.56c0,0,0.09-2.67-0.86-3.69C417.7,143.63,419.53,140.17,419.53,140.17z"/>
			</g>
		</g>
	</g>
</g>
<g>
	<path class="st55" d="M379.07,107.38l-63.54-15.64l0,0l-8.04-1.98c-3.13-0.77-6.29,1.14-7.06,4.27l-6.31,25.65l0,0l-0.36,1.46
		l-2.89,11.73c-0.77,3.13,1.14,6.29,4.27,7.06l70.44,17.34c3.13,0.77,6.29-1.14,7.06-4.27l0.84-3.43l0,0l2.4-9.76l0,0l3.5-14.24l0,0
		l3.09-12.55C383.1,110.52,381.57,108,379.07,107.38z"/>
	<g>
		<path class="st5" d="M364.45,154.95l-70.44-17.34c-3.13-0.77-5.04-3.93-4.27-7.06l9.56-38.84c0.77-3.13,3.93-5.04,7.06-4.27
			l70.44,17.34c3.13,0.77,5.04,3.93,4.27,7.06l-9.56,38.84C370.74,153.8,367.58,155.72,364.45,154.95z"/>
		<path class="st4" d="M304.13,101.44c-2.4,6.39-1.6,15.18,4.79,18.38c22.89,13.64,47.27,12.43,69.33,3.43l3.09-12.55
			c0.62-2.5-0.91-5.02-3.41-5.64l-63.54-15.64C309.63,92.12,306.21,96.77,304.13,101.44z"/>
		
			<rect x="290.56" y="127.28" transform="matrix(0.971 0.239 -0.239 0.971 41.2582 -75.6675)" class="st7" width="84.21" height="10.06"/>
		<path class="st7" d="M328.44,103.88l-24.71-6.08c-1.26-0.31-2.02-1.58-1.71-2.83l0.08-0.34c0.31-1.26,1.58-2.02,2.83-1.71
			l24.71,6.08c1.26,0.31,2.02,1.58,1.71,2.83l-0.08,0.34C330.96,103.42,329.69,104.19,328.44,103.88z"/>
		<path class="st7" d="M350.1,114.39l-48.71-11.99c-0.63-0.15-1.01-0.79-0.86-1.42l0.04-0.17c0.15-0.63,0.79-1.01,1.42-0.86
			l48.71,11.99c0.63,0.15,1.01,0.79,0.86,1.42l-0.04,0.17C351.37,114.16,350.73,114.54,350.1,114.39z"/>
		<g>
			<path class="st3" d="M340.12,123.65l-1.59-0.39c-0.88-0.22-1.42-1.11-1.2-1.99l0.06-0.24c0.22-0.88,1.11-1.42,1.99-1.2l1.59,0.39
				c0.88,0.22,1.42,1.11,1.2,1.99l-0.06,0.24C341.89,123.33,341,123.87,340.12,123.65z"/>
			<path class="st3" d="M346.21,125.15l-1.59-0.39c-0.88-0.22-1.42-1.11-1.2-1.99l0.06-0.24c0.22-0.88,1.11-1.42,1.99-1.2l1.59,0.39
				c0.88,0.22,1.42,1.11,1.2,1.99l-0.06,0.24C347.98,124.83,347.09,125.37,346.21,125.15z"/>
			<path class="st3" d="M352.3,126.65l-1.59-0.39c-0.88-0.22-1.42-1.11-1.2-1.99l0.06-0.24c0.22-0.88,1.11-1.42,1.99-1.2l1.59,0.39
				c0.88,0.22,1.42,1.11,1.2,1.99l-0.06,0.24C354.07,126.33,353.18,126.87,352.3,126.65z"/>
		</g>
		<g>
			<path class="st17" d="M366.69,108.64c-0.72-1.26-1.93-2.23-3.44-2.6c-2.94-0.72-5.91,1.07-6.63,4.01
				c-0.72,2.94,1.07,5.91,4.01,6.63c1.52,0.37,3.04,0.07,4.26-0.71c-0.67-1.18-0.92-2.6-0.57-4.03
				C364.66,110.52,365.54,109.37,366.69,108.64z"/>
			<path class="st17" d="M370.94,107.93c-1.52-0.37-3.04-0.07-4.26,0.71c0.67,1.18,0.92,2.6,0.57,4.03
				c-0.35,1.42-1.23,2.57-2.37,3.3c0.72,1.26,1.93,2.23,3.44,2.6c2.94,0.72,5.91-1.07,6.63-4.01S373.88,108.65,370.94,107.93z"/>
		</g>
	</g>
</g>
<text transform="matrix(1 0 0 1 227.5084 53.6719)" class="st56 st57">GOOGLE</text>
</svg>
