﻿<?xml version="1.0" encoding="utf-8"?>
<svg version="1.1" xmlns:xlink="http://www.w3.org/1999/xlink" width="33px" height="26px" xmlns="http://www.w3.org/2000/svg">
  <g transform="matrix(1 0 0 1 -146 -3236 )">
    <path d="M 18.2310267857143 3.32150461320085  C 16.5982142857143 2.68180742843624  14.8426339285714 2.36195883605394  12.9642857142857 2.36195883605394  C 11.0859375 2.36195883605394  9.33035714285714 2.68180742843624  7.69754464285714 3.32150461320085  C 6.06473214285714 3.96120179796546  4.76646205357143 4.82848355807901  3.802734375 5.92334989354152  C 2.83900669642857 7.01821622900402  2.35714285714286 8.1930447125621  2.35714285714286 9.44783534421575  C 2.35714285714286 10.4565885971138  2.68247767857143 11.4284362431985  3.33314732142857 12.3633782824698  C 3.98381696428571 13.2983203217412  4.8984375 14.1102436716347  6.07700892857143 14.7991483321505  L 7.86328125 15.8325053229241  L 7.21875 17.3825408090845  C 7.63616071428572 17.1365034303288  8.01674107142857 16.8966169860421  8.36049107142857 16.6628814762243  L 9.17075892857143 16.0908445706175  L 10.1467633928571 16.2753726046842  C 11.1043526785714 16.4475987698131  12.0435267857143 16.5337118523776  12.9642857142857 16.5337118523776  C 14.8426339285714 16.5337118523776  16.5982142857143 16.2138632599953  18.2310267857143 15.5741660752307  C 19.8638392857143 14.9344688904661  21.162109375 14.0671871303525  22.1258370535714 12.97232079489  C 23.0895647321429 11.8774544594275  23.5714285714286 10.7026259758694  23.5714285714286 9.44783534421575  C 23.5714285714286 8.1930447125621  23.0895647321429 7.01821622900402  22.1258370535714 5.92334989354152  C 21.162109375 4.82848355807901  19.8638392857143 3.96120179796546  18.2310267857143 3.32150461320085  Z M 6.45452008928571 1.26401703335699  C 8.44949776785714 0.421339011118996  10.6194196428571 0  12.9642857142857 0  C 15.3091517857143 0  17.4790736607143 0.421339011118996  19.4740513392857 1.26401703335699  C 21.4690290178571 2.10669505559498  23.0435267857143 3.25384433404305  24.1975446428571 4.70546486870121  C 25.3515625 6.15708540335935  25.9285714285714 7.73787556186421  25.9285714285714 9.44783534421575  C 25.9285714285714 11.1577951265673  25.3515625 12.7385852850722  24.1975446428571 14.1902058197303  C 23.0435267857143 15.6418263543885  21.4690290178571 16.7889756328365  19.4740513392857 17.6316536550745  C 17.4790736607143 18.4743316773125  15.3091517857143 18.8956706884315  12.9642857142857 18.8956706884315  C 11.9084821428571 18.8956706884315  10.828125 18.7972557369293  9.72321428571429 18.6004258339248  C 8.20089285714286 19.6829903004495  6.49441964285714 20.4703099124675  4.60379464285714 20.9623846699787  C 4.16183035714286 21.0731014904187  3.63392857142857 21.171516441921  3.02008928571429 21.2576295244854  L 2.96484375 21.2576295244854  C 2.82979910714286 21.2576295244854  2.70396205357143 21.2084220487343  2.58733258928571 21.1100070972321  C 2.470703125 21.0115921457298  2.40011160714286 20.8824225218831  2.37555803571429 20.722498225692  C 2.36328125 20.6855926188786  2.35714285714286 20.6456115448308  2.35714285714286 20.6025550035486  C 2.35714285714286 20.5594984622664  2.36021205357143 20.5195173882186  2.36635044642857 20.4826117814053  C 2.37248883928571 20.4457061745919  2.384765625 20.4088005677786  2.40318080357143 20.3718949609652  L 2.44921875 20.2796309439319  C 2.44921875 20.2796309439319  2.470703125 20.245800804353  2.513671875 20.1781405251952  C 2.556640625 20.1104802460374  2.58119419642857 20.0797255736929  2.58733258928571 20.0858765081618  C 2.59347098214286 20.0920274426307  2.62109375 20.0612727702863  2.67020089285714 19.9936124911285  C 2.71930803571429 19.9259522119707  2.74386160714286 19.8982730068607  2.74386160714286 19.9105748757984  C 2.80524553571429 19.8367636621718  2.94642857142857 19.6829903004495  3.16741071428571 19.4492547906317  C 3.38839285714286 19.2155192808138  3.54799107142857 19.0340667139815  3.64620535714286 18.9048970901348  C 3.74441964285714 18.7757274662881  3.88253348214286 18.5973503666903  4.060546875 18.3697657913414  C 4.23856026785714 18.1421812159924  4.39202008928571 17.9053702389401  4.52092633928571 17.6593328601845  C 4.64983258928571 17.4132954814289  4.77566964285714 17.1426543647977  4.8984375 16.847409510291  C 3.37611607142857 15.9616749467708  2.17912946428571 14.8729595457771  1.30747767857143 13.5812633073101  C 0.435825892857143 12.2895670688432  0 10.9117577478117  0 9.44783534421575  C 0 7.73787556186421  0.577008928571429 6.15708540335935  1.73102678571429 4.70546486870121  C 2.88504464285714 3.25384433404305  4.45954241071429 2.10669505559498  6.45452008928571 1.26401703335699  Z M 31.6925223214286 18.3144073811214  C 30.8208705357143 19.5999526851195  29.6238839285714 20.6855926188786  28.1015625 21.5713271823989  C 28.2243303571429 21.8665720369056  28.3501674107143 22.1372131535368  28.4790736607143 22.3832505322924  C 28.6079799107143 22.629287911048  28.7614397321429 22.8660988881003  28.939453125 23.0936834634493  C 29.1174665178571 23.3212680387982  29.2555803571429 23.499645138396  29.3537946428571 23.6288147622427  C 29.4520089285714 23.7579843860894  29.6116071428571 23.9394369529217  29.8325892857143 24.1731724627395  C 30.0535714285714 24.4069079725574  30.1947544642857 24.5606813342796  30.2561383928571 24.6344925479063  C 30.2684151785714 24.6467944168441  30.29296875 24.6744736219541  30.3297991071429 24.7175301632363  C 30.3666294642857 24.7605867045186  30.3942522321429 24.791341376863  30.4126674107143 24.8097941802697  C 30.4310825892857 24.8282469836764  30.4556361607143 24.8590016560208  30.486328125 24.9020581973031  C 30.5170200892857 24.9451147385853  30.5385044642857 24.9789448781642  30.55078125 25.0035486160397  L 30.5968191964286 25.0958126330731  C 30.5968191964286 25.0958126330731  30.6090959821429 25.1327182398864  30.6336495535714 25.2065294535131  C 30.658203125 25.2803406671398  30.6612723214286 25.3203217411876  30.6428571428571 25.3264726756565  C 30.6244419642857 25.3326236101254  30.6183035714286 25.3726046841732  30.6244419642857 25.4464158977999  C 30.5876116071429 25.6186420629288  30.5078125 25.7539626212444  30.3850446428571 25.8523775727466  C 30.2622767857143 25.9507925242489  30.1272321428571 25.9938490655311  29.9799107142857 25.9815471965933  C 29.3660714285714 25.8954341140289  28.8381696428571 25.7970191625266  28.3962053571429 25.6863023420866  C 26.5055803571429 25.1942275845753  24.7991071428571 24.4069079725574  23.2767857142857 23.3243435060326  C 22.171875 23.5211734090371  21.0915178571429 23.6195883605394  20.0357142857143 23.6195883605394  C 16.7087053571429 23.6195883605394  13.8113839285714 22.8076650106458  11.34375 21.1838183108588  C 12.0558035714286 21.2330257866099  12.5959821428571 21.2576295244854  12.9642857142857 21.2576295244854  C 14.9408482142857 21.2576295244854  16.8376116071429 20.9808374733854  18.6545758928571 20.4272533711852  C 20.4715401785714 19.8736692689851  22.0920758928571 19.0801987224982  23.5161830357143 18.0468417317246  C 25.05078125 16.9150697894488  26.2293526785714 15.611071682044  27.0518973214286 14.1348474095103  C 27.8744419642857 12.6586231369766  28.2857142857143 11.0962857818784  28.2857142857143 9.44783534421575  C 28.2857142857143 8.50059143600662  28.14453125 7.56564939673527  27.8621651785714 6.6430092264017  C 29.4458705357143 7.51644192098415  30.6981026785714 8.61130825644665  31.6188616071429 9.92760823278921  C 32.5396205357143 11.2439082091318  33 12.6586231369766  33 14.1717530163236  C 33 15.6479772888573  32.5641741071429 17.0288620771233  31.6925223214286 18.3144073811214  Z " fill-rule="nonzero" fill="#ffffff" stroke="none" transform="matrix(1 0 0 1 146 3236 )" />
  </g>
</svg>